{"page":10,"total_results":1097,"total_pages":55,"results":[{"vote_count":130,"id":374205,"video":false,"vote_average":7.3,"title":"One Piece Film: GOLD","popularity":6.02,"poster_path":"\/OAXCENRg0smntp0uPhTQMPxs0O.jpg","original_language":"ja","original_title":"ワンピース　フィルム GOLD","genre_ids":[28,16,12,35],"backdrop_path":"\/jlsJGNXRGx6d06osRbjwxoVEVXV.jpg","adult":false,"overview":"The Straw Hat Pirates are taking on Gild Tesoro, one of the richest men in the world.","release_date":"2016-07-23"},{"vote_count":51,"id":407375,"video":false,"vote_average":5.8,"title":"Sniper: Ghost Shooter","popularity":6.005,"poster_path":"\/sO61kOJEObDs8uOTkQLj5j8eaxu.jpg","original_language":"en","original_title":"Sniper: Ghost Shooter","genre_ids":[28,18,10752],"backdrop_path":"\/yYS8wtp7PgRcugt6EUMhv95NnaK.jpg","adult":false,"overview":"Elite snipers Brandon Beckett and Richard Miller are tasked with protecting a gas pipeline from terrorists looking to make a statement. When battles with the enemy lead to snipers being killed by a ghost shooter who knows their exact location, tensions boil as a security breach is suspected. Is there someone working with the enemy on the inside? Is the mission a front for other activity? Is the Colonel pulling the strings?","release_date":"2016-08-02"},{"vote_count":83,"id":325173,"video":false,"vote_average":5.2,"title":"Close Range","popularity":5.996,"poster_path":"\/vbKQn4YHPXNKb2hp64cJ84wsDh.jpg","original_language":"en","original_title":"Close Range","genre_ids":[28,80],"backdrop_path":"\/j6zFeNXGSnJBxkyPVpGsXLFgDLA.jpg","adult":false,"overview":"A rogue soldier turned outlaw is thrust into a relentless fight with a corrupt sheriff, his obedient deputies, and a dangerous drug cartel in order to protect his sister and her young daughter.","release_date":"2015-12-11"},{"vote_count":83,"id":265851,"video":false,"vote_average":6.9,"title":"No Tears for the Dead","popularity":5.916,"poster_path":"\/pxVfZr1R1QZ8qdFtEqltMWwz4bF.jpg","original_language":"ko","original_title":"우는 남자","genre_ids":[28,53],"backdrop_path":"\/eNF7rXL1kuiiwsLzltewXwGKMJT.jpg","adult":false,"overview":"Gon, a Korean hitman bred in the United States where he works for a Chinese triad, usually flawless in taking out his targets, makes a terrible mistake in fulfilling a mission. Swamped by feelings of regret, Gon no longer wants to be a hitman, but, in order to tie up loose ends, his boss forces him to do another job in Korea.","release_date":"2014-06-04"},{"vote_count":218,"id":253450,"video":false,"vote_average":6.5,"title":"The Assassin","popularity":5.869,"poster_path":"\/o95K5iPwIqH8oPSFBoGEQkTtZb0.jpg","original_language":"zh","original_title":"刺客聶隱娘","genre_ids":[28,18,36],"backdrop_path":"\/9VcGtZMk9IaMxPwX8e0frHVinBR.jpg","adult":false,"overview":"A female assassin during the Tang Dynasty who begins to question her loyalties when she falls in love with one of her targets.","release_date":"2015-08-27"},{"vote_count":72,"id":378385,"video":false,"vote_average":5.7,"title":"Jarhead 3: The Siege","popularity":5.819,"poster_path":"\/dMSGHERrKfbKqRwhQNb2oqYJvO6.jpg","original_language":"en","original_title":"Jarhead 3: The Siege","genre_ids":[28,18,10752],"backdrop_path":"\/d8N4CM46TwQRCL8JLcUF1reUgW4.jpg","adult":false,"overview":"Corporal Evan Albright joined the elite Marine Corps Security Guards to save the world and see some action-not necessarily in that order. But his first assignment, protecting a U. S. Embassy in a seemingly safe Middle Eastern capitol, relegates his unit to wrangling \"gate groupies\" protesting outside the compound and honing their marksmanship by playing video games. So Albright and his team are caught off guard when well-armed and well-trained militants launch a surprise attack aimed at killing an informant in the embassy. Heavily out-gunned, they will have to muster all the courage and fire power they can as their once routine assignment spirals into all-out war.","release_date":"2016-01-20"},{"vote_count":104,"id":402907,"video":false,"vote_average":6.2,"title":"Odd Job","popularity":5.814,"poster_path":"\/519dD4HnLeFrqsELxHT6uo0AGzL.jpg","original_language":"fr","original_title":"Un petit boulot","genre_ids":[28,35],"backdrop_path":"\/9QWNxNIoT6yOrAKerl8J3cdSgv4.jpg","adult":false,"overview":"An unemployed factory worker takes a job as a hit man to make ends meet.","release_date":"2016-08-31"},{"vote_count":359,"id":286567,"video":false,"vote_average":5.2,"title":"Max Steel","popularity":5.782,"poster_path":"\/inFoGkUfzg56iuTBVDifzTq7jVx.jpg","original_language":"en","original_title":"Max Steel","genre_ids":[28,12,878],"backdrop_path":"\/mH1DfgSjHxaxmO1RyxS9zZYtt4i.jpg","adult":false,"overview":"The adventures of teenager Max McGrath and alien companion Steel, who must harness and combine their tremendous new powers to evolve into the turbo-charged superhero Max Steel.","release_date":"2016-10-14"},{"vote_count":70,"id":411736,"video":false,"vote_average":6.9,"title":"Batman: Return of the Caped Crusaders","popularity":5.774,"poster_path":"\/GW3IyMW5Xgl0cgCN8wu96IlNpD.jpg","original_language":"en","original_title":"Batman: Return of the Caped Crusaders","genre_ids":[28,16,12,80,878],"backdrop_path":"\/4HriXH0XmceHwW6FVFcl3KPUaVY.jpg","adult":false,"overview":"Adam West and Burt Ward returns to their iconic roles of Batman and Robin. Featuring the voices of Adam West, Burt Ward, and Julie Newmar, the film sees the superheroes going up against classic villains like The Joker, The Riddler, The Penguin and Catwoman, both in Gotham City… and in space.","release_date":"2016-10-08"},{"vote_count":151,"id":403605,"video":false,"vote_average":6.4,"title":"Headshot","popularity":5.745,"poster_path":"\/dwPRDiUAvoQmETTfWxNFXhs7IpY.jpg","original_language":"id","original_title":"Headshot","genre_ids":[28,53],"backdrop_path":"\/zUBVfjh3bUbwJtGX6FnrUMUX1BX.jpg","adult":false,"overview":"A young man washes ashore, his memory gone - but his past comes back to haunt him after he is nursed back to health and his killing ability is needed when he takes on a powerful drug lord.","release_date":"2016-09-24"},{"vote_count":56,"id":332976,"video":false,"vote_average":4.7,"title":"Absolution","popularity":5.683,"poster_path":"\/gbHQhSRr52lDv1FRXqBPTsm80dq.jpg","original_language":"en","original_title":"Absolution","genre_ids":[53,28,12,80],"backdrop_path":"\/rdKDLEHq2IfTyIZrMuX0557SoRz.jpg","adult":false,"overview":"When a contract killer (Steven Seagal) encounters a girl on the run from a dangerous mob boss (Vinnie Jones) with powerful political ties, running a human trafficking operation, he is torn between protecting the girl, and remaining loyal to the government agency that hired him.","release_date":"2015-05-04"},{"vote_count":49,"id":427342,"video":false,"vote_average":6.6,"title":"Panfilov's 28 Men","popularity":5.674,"poster_path":"\/poKvkU32E9B1aCc4Pe6BrppMhFO.jpg","original_language":"ru","original_title":"28 панфиловцев","genre_ids":[36,28,18,10752],"backdrop_path":"\/8N18uL4wDkjwhlwwaPFH1KIGUur.jpg","adult":false,"overview":"USSR, Late November, 1941. Based on the account by reporter Vasiliy Koroteev that appeared in the Red Army's newspaper, Krasnaya Zvezda, shortly after the battle, this is the story of Panifilov's Twenty-Eight, a group of twenty-eight soldiers of the Red Army's 316th Rifle Division, under the command of General Ivan Panfilov, that stopped the advance on Moscow of a column of fifty-four Nazi tanks of the 11th Panzer Division for several days. Though armed only with standard issue Mosin-Nagant infantry rifles and DP and PM-M1910 machine guns, all useless against tanks, and with wholly inadequate RPG-40 anti-tank grenades and PTRD-41 anti-tank rifles, they fight tirelessly and defiantly, with uncommon bravery and unwavering dedication, to protect Moscow and their Motherland.","release_date":"2016-11-24"},{"vote_count":48,"id":286548,"video":false,"vote_average":4,"title":"TEKKEN: Kazuya's Revenge","popularity":5.557,"poster_path":"\/mgr0lSUeBsbNiKEhsqQPmqasrpO.jpg","original_language":"en","original_title":"TEKKEN: A Man Called X","genre_ids":[28],"backdrop_path":"\/skxCAn417Vavo4JWp18yQ95EPZh.jpg","adult":false,"overview":"A young man, Kazuya Mishima, wakes up alone in an unfamiliar hotel room without any recollection of who he is or how he got there. He is tormented by flashes of his past and by the face of an ominous stranger. The next thing he knows, Kazuya is ambushed and kidnapped by an underground crime organization and, soon after, turned into a ruthless assassin.  During a mission to assassinate a man named Brian Fury, Kazuya finds that his target harbors clues to his true identity. With the help of Fury and a female assassin, Kazuya follows the clues, leading him to the lab of his reoccurring flashbacks. Here, he will finally confront his past and the ominous man of his nightmares - Heihachi Mishima, face the ultimate betrayal, and Ieam the truth about who, and what, he really is.  TEKKEN 2: KAZUYA’S REVENGE is non-stop action from the first scene to the last.","release_date":"2014-08-12"},{"vote_count":96,"id":276624,"video":false,"vote_average":6.6,"title":"I Am a Hero","popularity":5.505,"poster_path":"\/4RnmHtCLtbBHD9jagVlcSzJTWX6.jpg","original_language":"ja","original_title":"アイアムアヒーロー","genre_ids":[28,878,14,27],"backdrop_path":"\/ykWS71AVN9TP0qRbZrvW0EUZZh1.jpg","adult":false,"overview":"Hideo Suzuki is a 35-year-old mangaka assistant, whose life seem to be stuck around his exhausting but low-paying job, unfulfilled dreams, strange hallucinations and unsatisfying relationships. He sees himself as a supporting character in his own life, has low self-esteem, resulting in frustration. One day, the world as Hideo knows it is shattered by the presence of a disease that turns people into homicidal maniacs, whose first instinct is to attack and devour the nearest human.","release_date":"2016-03-23"},{"vote_count":88,"id":429450,"video":false,"vote_average":6.9,"title":"Pandora","popularity":5.503,"poster_path":"\/umHCE2ZXihgKI2CXvgbjcxwjKcV.jpg","original_language":"ko","original_title":"판도라","genre_ids":[53,18,28],"backdrop_path":"\/vcq4aM7NvVYFAYQbxEAWtcVFSUv.jpg","adult":false,"overview":"When an earthquake hits a Korean village housing a run-down nuclear power plant, a man risks his life to save the country from imminent disaster.","release_date":"2016-12-07"},{"vote_count":69,"id":369698,"video":false,"vote_average":4.9,"title":"Viking","popularity":5.466,"poster_path":"\/xxl0YHkYHHCetgnG2fgezUaQiHc.jpg","original_language":"ru","original_title":"Викинг","genre_ids":[36,28,18],"backdrop_path":"\/iC9xKaiMZ2jEQfjTcJKmANYfvvy.jpg","adult":false,"overview":"The early Middle Ages. A time of heavy swords and dark blood law. The ruling clan is in discord. The guilt for the accidental death of the brother has fallen on the Grand Duke. According to the law, revenge must be taken by the younger brother, a bastard. For the refusal to kill, he has to pay with eve- rything he had, because “for peace you need more swords than for a war”...","release_date":"2016-12-29"},{"vote_count":92,"id":375290,"video":false,"vote_average":7.2,"title":"Airlift","popularity":5.451,"poster_path":"\/oyaxIm3kTWDQtcYQ45eN5sZ6WIz.jpg","original_language":"hi","original_title":"Airlift","genre_ids":[28,18,36],"backdrop_path":"\/nTdYSrPgDUz9cXwqz7lFQzErmPM.jpg","adult":false,"overview":"When Iraq invades Kuwait in August, 1990, a callous Indian businessman becomes the spokesperson for more than 170,000 stranded countrymen.","release_date":"2016-01-22"},{"vote_count":73,"id":296917,"video":false,"vote_average":7.2,"title":"Psycho-Pass: The Movie","popularity":5.407,"poster_path":"\/t7GCogR4nNYpK6buK1jb4KiPV7y.jpg","original_language":"ja","original_title":"劇場版 サイコパス","genre_ids":[878,16,28],"backdrop_path":"\/iRmt0hnNnzPwcLyQA6dVPSyjQT4.jpg","adult":false,"overview":"Year 2116—The Japanese government begins to export the Sibyl System unmanned drone robots to troubled countries, and the system spreads throughout the world. A state in the midst of a civil war, SEAUn (the South East Asia Union), brings in the Sibyl System as an experiment. Under the new system, the coastal town of Shambala Float achieves temporary peace and safety. But then SEAUn sends terrorists to Japan. They slip through the Sibyl System and then attack from within. The shadow of a certain man falls on this incident. In charge of the police, Tsunemori travels to Shambala Float to investigate. The truth of justice on this new ground will become clear.","release_date":"2015-01-09"},{"vote_count":98,"id":339533,"video":false,"vote_average":3.6,"title":"San Andreas Quake","popularity":5.404,"poster_path":"\/4W3VWMgSt0Fsc1wrsGM6i8ePJ3K.jpg","original_language":"en","original_title":"San Andreas Quake","genre_ids":[28,878,10770],"backdrop_path":"\/jsfCDnIdX6q6h20Z7tzrxpU5yrq.jpg","adult":false,"overview":"When a discredited L.A. Seismologist warns of an impending 12.7 earthquake, no one takes her seriously. Now on her own, she races desperately to get her family to safety before the earthquake breaks Los Angeles apart from the mainland.","release_date":"2015-05-19"},{"vote_count":84,"id":274504,"video":false,"vote_average":5.3,"title":"The Adderall Diaries","popularity":5.382,"poster_path":"\/c4Ru5EJreB7WsnOJNHwedTt8lrk.jpg","original_language":"en","original_title":"The Adderall Diaries","genre_ids":[28,18,53],"backdrop_path":"\/yPXx2QSvq8IZk8eY8P9ghbijjS9.jpg","adult":false,"overview":"Writer and Adderall enthusiast Stephen Elliott reaches a low point when his estranged father resurfaces, claiming that Stephen has fabricated much of the dark childhood that that fuels his writing. Adrift in the precarious gray area of memory, Stephen is led by three sources of inspiration: a new romance, the best friend who shares his history, and a murder trial that reminds him more than a little of his own story. Based on the memoir of the same name.","release_date":"2016-04-15"}]}