{
  "page": 1,
  "total_results": 1097,
  "total_pages": 55,
  "results": [
    {
      "vote_count": 8876,
      "id": 245891,
      "video": false,
      "vote_average": 7.1,
      "title": "John Wick",
      "popularity": 53.177,
      "poster_path": "\/5vHssUeVe25bMrof1HyaPyWgaP.jpg",
      "original_language": "en",
      "original_title": "John Wick",
      "genre_ids": [
        28,
        53
      ],
      "backdrop_path": "\/umC04Cozevu8nn3JTDJ1pc7PVTn.jpg",
      "adult": false,
      "overview": "Ex-hitman John Wick comes out of retirement to track down the gangsters that took everything from him.",
      "release_date": "2014-10-22"
    },
    {
      "vote_count": 12527,
      "id": 271110,
      "video": false,
      "vote_average": 7.3,
      "title": "Captain America: Civil War",
      "popularity": 37.717,
      "poster_path": "\/kSBXou5Ac7vEqKd97wotJumyJvU.jpg",
      "original_language": "en",
      "original_title": "Captain America: Civil War",
      "genre_ids": [
        12,
        28,
        878
      ],
      "backdrop_path": "\/m5O3SZvQ6EgD5XXXLPIP1wLppeW.jpg",
      "adult": false,
      "overview": "Following the events of Age of Ultron, the collective governments of the world pass an act designed to regulate all superhuman activity. This polarizes opinion amongst the Avengers, causing two factions to side with Iron Man or Captain America, which causes an epic battle between former allies.",
      "release_date": "2016-04-27"
    },
    {
      "vote_count": 11191,
      "id": 209112,
      "video": false,
      "vote_average": 5.8,
      "title": "Batman v Superman: Dawn of Justice",
      "popularity": 36.923,
      "poster_path": "\/cGOPbv9wA5gEejkUN892JrveARt.jpg",
      "original_language": "en",
      "original_title": "Batman v Superman: Dawn of Justice",
      "genre_ids": [
        28,
        12,
        14
      ],
      "backdrop_path": "\/vsjBeMPZtyB7yNsYY56XYxifaQZ.jpg",
      "adult": false,
      "overview": "Fearing the actions of a god-like Super Hero left unchecked, Gotham City’s own formidable, forceful vigilante takes on Metropolis’s most revered, modern-day savior, while the world wrestles with what sort of hero it really needs. And with Batman and Superman at war with one another, a new threat quickly arises, putting mankind in greater danger than it’s ever known before.",
      "release_date": "2016-03-23"
    },
    {
      "vote_count": 18642,
      "id": 293660,
      "video": false,
      "vote_average": 7.5,
      "title": "Deadpool",
      "popularity": 36.61,
      "poster_path": "\/inVq3FRqcYIRl2la8iZikYYxFNR.jpg",
      "original_language": "en",
      "original_title": "Deadpool",
      "genre_ids": [
        28,
        12,
        35
      ],
      "backdrop_path": "\/n1y094tVDFATSzkTnFxoGZ1qNsG.jpg",
      "adult": false,
      "overview": "Deadpool tells the origin story of former Special Forces operative turned mercenary Wade Wilson, who after being subjected to a rogue experiment that leaves him with accelerated healing powers, adopts the alter ego Deadpool. Armed with his new abilities and a dark, twisted sense of humor, Deadpool hunts down the man who nearly destroyed his life.",
      "release_date": "2016-02-09"
    },
    {
      "vote_count": 11141,
      "id": 284052,
      "video": false,
      "vote_average": 7.3,
      "title": "Doctor Strange",
      "popularity": 33.946,
      "poster_path": "\/4PiiNGXj1KENTmCBHeN6Mskj2Fq.jpg",
      "original_language": "en",
      "original_title": "Doctor Strange",
      "genre_ids": [
        28,
        12,
        14,
        878
      ],
      "backdrop_path": "\/tFI8VLMgSTTU38i8TIsklfqS9Nl.jpg",
      "adult": false,
      "overview": "After his career is destroyed, a brilliant but arrogant surgeon gets a new lease on life when a sorcerer takes him under her wing and trains him to defend the world against evil.",
      "release_date": "2016-10-25"
    },
    {
      "vote_count": 13513,
      "id": 76341,
      "video": false,
      "vote_average": 7.4,
      "title": "Mad Max: Fury Road",
      "popularity": 29.962,
      "poster_path": "\/kqjL17yufvn9OVLyXYpvtyrFfak.jpg",
      "original_language": "en",
      "original_title": "Mad Max: Fury Road",
      "genre_ids": [
        28,
        12,
        878,
        53
      ],
      "backdrop_path": "\/phszHPFVhPHhMZgo0fWTKBDQsJA.jpg",
      "adult": false,
      "overview": "An apocalyptic story set in the furthest reaches of our planet, in a stark desert landscape where humanity is broken, and most everyone is crazed fighting for the necessities of life. Within this world exist two rebels on the run who just might be able to restore order. There's Max, a man of action and a man of few words, who seeks peace of mind following the loss of his wife and child in the aftermath of the chaos. And Furiosa, a woman of action and a woman who believes her path to survival may be achieved if she can make it across the desert back to her childhood homeland.",
      "release_date": "2015-05-13"
    },
    {
      "vote_count": 13219,
      "id": 135397,
      "video": false,
      "vote_average": 6.6,
      "title": "Jurassic World",
      "popularity": 29.081,
      "poster_path": "\/jjBgi2r5cRt36xF6iNUEhzscEcb.jpg",
      "original_language": "en",
      "original_title": "Jurassic World",
      "genre_ids": [
        28,
        12,
        878,
        53
      ],
      "backdrop_path": "\/t5KONotASgVKq4N19RyhIthWOPG.jpg",
      "adult": false,
      "overview": "Twenty-two years after the events of Jurassic Park, Isla Nublar now features a fully functioning dinosaur theme park, Jurassic World, as originally envisioned by John Hammond.",
      "release_date": "2015-06-06"
    },
    {
      "vote_count": 7637,
      "id": 246655,
      "video": false,
      "vote_average": 6.5,
      "title": "X-Men: Apocalypse",
      "popularity": 28.2,
      "poster_path": "\/zSouWWrySXshPCT4t3UKCQGayyo.jpg",
      "original_language": "en",
      "original_title": "X-Men: Apocalypse",
      "genre_ids": [
        28,
        12,
        878,
        14
      ],
      "backdrop_path": "\/oQWWth5AOtbWG9o8SCAviGcADed.jpg",
      "adult": false,
      "overview": "After the re-emergence of the world's first mutant, world-destroyer Apocalypse, the X-Men must unite to defeat his extinction level plan.",
      "release_date": "2016-05-18"
    },
    {
      "vote_count": 6132,
      "id": 291805,
      "video": false,
      "vote_average": 6.8,
      "title": "Now You See Me 2",
      "popularity": 27.556,
      "poster_path": "\/hU0E130tsGdsYa4K9lc3Xrn5Wyt.jpg",
      "original_language": "en",
      "original_title": "Now You See Me 2",
      "genre_ids": [
        28,
        35,
        53
      ],
      "backdrop_path": "\/zrAO2OOa6s6dQMQ7zsUbDyIBrAP.jpg",
      "adult": false,
      "overview": "One year after outwitting the FBI and winning the public’s adulation with their mind-bending spectacles, the Four Horsemen resurface only to find themselves face to face with a new enemy who enlists them to pull off their most dangerous heist yet.",
      "release_date": "2016-06-02"
    },
    {
      "vote_count": 11880,
      "id": 140607,
      "video": false,
      "vote_average": 7.4,
      "title": "Star Wars: The Force Awakens",
      "popularity": 26.504,
      "poster_path": "\/weUSwMdQIa3NaXVzwUoIIcAi85d.jpg",
      "original_language": "en",
      "original_title": "Star Wars: The Force Awakens",
      "genre_ids": [
        28,
        12,
        878,
        14
      ],
      "backdrop_path": "\/njv65RTipNSTozFLuF85jL0bcQe.jpg",
      "adult": false,
      "overview": "Thirty years after defeating the Galactic Empire, Han Solo and his allies face a new threat from the evil Kylo Ren and his army of Stormtroopers.",
      "release_date": "2015-12-15"
    },
    {
      "vote_count": 4107,
      "id": 273481,
      "video": false,
      "vote_average": 7.3,
      "title": "Sicario",
      "popularity": 24.563,
      "poster_path": "\/p2SdfGmQRaw8xhFbexlHL7srMM8.jpg",
      "original_language": "en",
      "original_title": "Sicario",
      "genre_ids": [
        28,
        80,
        18,
        9648,
        53
      ],
      "backdrop_path": "\/zAHozevwbbsB2epEVpCkzqVccWW.jpg",
      "adult": false,
      "overview": "An idealistic FBI agent is enlisted by a government task force to aid in the escalating war against drugs at the border area between the U.S. and Mexico.",
      "release_date": "2015-09-17"
    },
    {
      "vote_count": 6340,
      "id": 206647,
      "video": false,
      "vote_average": 6.4,
      "title": "Spectre",
      "popularity": 24.032,
      "poster_path": "\/hE24GYddaxB9MVZl1CaiI86M3kp.jpg",
      "original_language": "en",
      "original_title": "Spectre",
      "genre_ids": [
        28,
        12,
        80
      ],
      "backdrop_path": "\/wVTYlkKPKrljJfugXN7UlLNjtuJ.jpg",
      "adult": false,
      "overview": "A cryptic message from Bond’s past sends him on a trail to uncover a sinister organization. While M battles political forces to keep the secret service alive, Bond peels back the layers of deceit to reveal the terrible truth behind SPECTRE.",
      "release_date": "2015-10-26"
    },
    {
      "vote_count": 2182,
      "id": 346672,
      "video": false,
      "vote_average": 5.4,
      "title": "Underworld: Blood Wars",
      "popularity": 23.081,
      "poster_path": "\/nHXiMnWUAUba2LZ0dFkNDVdvJ1o.jpg",
      "original_language": "en",
      "original_title": "Underworld: Blood Wars",
      "genre_ids": [
        28,
        14,
        27,
        18
      ],
      "backdrop_path": "\/fXqGBlz4xtLZzo878sHUxtsVzpU.jpg",
      "adult": false,
      "overview": "Vampire death dealer Selene fends off brutal attacks from both the Lycan clan and the Vampire faction that betrayed her. With her only allies, David and his father Thomas, she must stop the eternal war between Lycans and Vampires, even if it means she has to make the ultimate sacrifice.",
      "release_date": "2016-11-24"
    },
    {
      "vote_count": 9575,
      "id": 207703,
      "video": false,
      "vote_average": 7.6,
      "title": "Kingsman: The Secret Service",
      "popularity": 22.254,
      "poster_path": "\/8x7ej0LnHdKUqilNNJXYOeyB6L9.jpg",
      "original_language": "en",
      "original_title": "Kingsman: The Secret Service",
      "genre_ids": [
        80,
        35,
        28,
        12
      ],
      "backdrop_path": "\/7McaexSsSTLD8V17UgaZAfI0Cu9.jpg",
      "adult": false,
      "overview": "The story of a super-secret spy organization that recruits an unrefined but promising street kid into the agency's ultra-competitive training program just as a global threat emerges from a twisted tech genius.",
      "release_date": "2015-01-24"
    },
    {
      "vote_count": 6160,
      "id": 280,
      "video": false,
      "vote_average": 7.9,
      "title": "Terminator 2: Judgment Day",
      "popularity": 21.595,
      "poster_path": "\/2y4dmgWYRMYXdD1UyJVcn2HSd1D.jpg",
      "original_language": "en",
      "original_title": "Terminator 2: Judgment Day",
      "genre_ids": [
        28,
        53,
        878
      ],
      "backdrop_path": "\/d9AqtruwS8nljKjL5aYzM42hQJr.jpg",
      "adult": false,
      "overview": "Nearly 10 years have passed since Sarah Connor was targeted for termination by a cyborg from the future. Now her son, John, the future leader of the resistance, is the target for a newer, more deadly terminator. Once again, the resistance has managed to send a protector back to attempt to save John and his mother Sarah.",
      "release_date": "1991-07-03"
    },
    {
      "vote_count": 6961,
      "id": 131634,
      "video": false,
      "vote_average": 6.8,
      "title": "The Hunger Games: Mockingjay - Part 2",
      "popularity": 20.464,
      "poster_path": "\/w93GAiq860UjmgR6tU9h2T24vaV.jpg",
      "original_language": "en",
      "original_title": "The Hunger Games: Mockingjay - Part 2",
      "genre_ids": [
        28,
        12,
        878
      ],
      "backdrop_path": "\/qjn3fzCAHGfl0CzeUlFbjrsmu4c.jpg",
      "adult": false,
      "overview": "With the nation of Panem in a full scale war, Katniss confronts President Snow in the final showdown. Teamed with a group of her closest friends – including Gale, Finnick, and Peeta – Katniss goes off on a mission with the unit from District 13 as they risk their lives to stage an assassination attempt on President Snow who has become increasingly obsessed with destroying her. The mortal traps, enemies, and moral choices that await Katniss will challenge her more than any arena she faced in The Hunger Games.",
      "release_date": "2015-11-18"
    },
    {
      "vote_count": 2670,
      "id": 316727,
      "video": false,
      "vote_average": 6.3,
      "title": "The Purge: Election Year",
      "popularity": 20.047,
      "poster_path": "\/sm7p6NvWOBSDywdIPhmiX3SLSH8.jpg",
      "original_language": "en",
      "original_title": "The Purge: Election Year",
      "genre_ids": [
        28,
        27,
        53
      ],
      "backdrop_path": "\/lPhsKTtycmbp6bzJAG662Pd5U3N.jpg",
      "adult": false,
      "overview": "Two years after choosing not to kill the man who killed his son, former police sergeant Leo Barnes has become head of security for Senator Charlene Roan, the front runner in the next Presidential election due to her vow to eliminate the Purge. On the night of what should be the final Purge, a betrayal from within the government forces Barnes and Roan out onto the street where they must fight to survive the night.",
      "release_date": "2016-06-29"
    },
    {
      "vote_count": 3744,
      "id": 262504,
      "video": false,
      "vote_average": 5.9,
      "title": "Allegiant",
      "popularity": 19.664,
      "poster_path": "\/tSFBh9Ayn5uiwbUK9HvD2lrRgaQ.jpg",
      "original_language": "en",
      "original_title": "Allegiant",
      "genre_ids": [
        12,
        878,
        28,
        9648
      ],
      "backdrop_path": "\/uAHZoVE4tkUHTVzm03raQYTsarx.jpg",
      "adult": false,
      "overview": "Beatrice Prior and Tobias Eaton venture into the world outside of the fence and are taken into protective custody by a mysterious agency known as the Bureau of Genetic Welfare.",
      "release_date": "2016-03-09"
    },
    {
      "vote_count": 604,
      "id": 303857,
      "video": false,
      "vote_average": 6.7,
      "title": "Dragon Ball Z: Resurrection 'F'",
      "popularity": 19.604,
      "poster_path": "\/uYgE4QiNEDNbYTthVH5MJuCIBsX.jpg",
      "original_language": "ja",
      "original_title": "ドラゴンボールZ 復活の「F」",
      "genre_ids": [
        28,
        12,
        16,
        14
      ],
      "backdrop_path": "\/j98rDMOFD7iWdFV4JMFinq3UMj2.jpg",
      "adult": false,
      "overview": "One peaceful day on Earth, two remnants of Frieza's army named Sorbet and Tagoma arrive searching for the Dragon Balls with the aim of reviving Frieza. They succeed, and Frieza subsequently seeks revenge on the Saiyans.",
      "release_date": "2015-04-18"
    },
    {
      "vote_count": 12577,
      "id": 297761,
      "video": false,
      "vote_average": 5.9,
      "title": "Suicide Squad",
      "popularity": 19.395,
      "poster_path": "\/e1mjopzAS2KNsvpbpahQ1a6SkSn.jpg",
      "original_language": "en",
      "original_title": "Suicide Squad",
      "genre_ids": [
        28,
        12,
        80,
        14,
        878
      ],
      "backdrop_path": "\/ndlQ2Cuc3cjTL7lTynw6I4boP4S.jpg",
      "adult": false,
      "overview": "From DC Comics comes the Suicide Squad, an antihero team of incarcerated supervillains who act as deniable assets for the United States government, undertaking high-risk black ops missions in exchange for commuted prison sentences.",
      "release_date": "2016-08-03"
    }
  ]
}