{"page":2,"total_results":1097,"total_pages":55,"results":[{"vote_count":9336,"id":240832,"video":false,"vote_average":6.3,"title":"Lucy","popularity":19.237,"poster_path":"\/rwn876MeqienhOVSSjtUPnwxn0Z.jpg","original_language":"en","original_title":"Lucy","genre_ids":[28,878],"backdrop_path":"\/eCgIoGvfNXrbSiQGqQHccuHjQHm.jpg","adult":false,"overview":"A woman, accidentally caught in a dark deal, turns the tables on her captors and transforms into a merciless warrior evolved beyond human logic.","release_date":"2014-07-25"},{"vote_count":3525,"id":43074,"video":false,"vote_average":5.4,"title":"Ghostbusters","popularity":19.04,"poster_path":"\/4qnJ1hsMADxzwnOmnwjZTNp0rKT.jpg","original_language":"en","original_title":"Ghostbusters","genre_ids":[28,14,35],"backdrop_path":"\/lbtG9MTb8i13KhXuyl3bmnqt7Lt.jpg","adult":false,"overview":"Following a ghost invasion of Manhattan, paranormal enthusiasts Erin Gilbert and Abby Yates, nuclear engineer Jillian Holtzmann, and subway worker Patty Tolan band together to stop the otherworldly threat.","release_date":"2016-07-14"},{"vote_count":7165,"id":68726,"video":false,"vote_average":6.8,"title":"Pacific Rim","popularity":18.677,"poster_path":"\/xzT2FOoXEFkdI3Himpa0bgUZlCE.jpg","original_language":"en","original_title":"Pacific Rim","genre_ids":[28,878,12],"backdrop_path":"\/iB0RsWVoOXzicPi2Yy5xmTYMbho.jpg","adult":false,"overview":"When legions of monstrous creatures, known as Kaiju, started rising from the sea, a war began that would take millions of lives and consume humanity's resources for years on end. To combat the giant Kaiju, a special type of weapon was devised: massive robots, called Jaegers, which are controlled simultaneously by two pilots whose minds are locked in a neural bridge. But even the Jaegers are proving nearly defenseless in the face of the relentless Kaiju. On the verge of defeat, the forces defending mankind have no choice but to turn to two unlikely heroes—a washed-up former pilot (Charlie Hunnam) and an untested trainee (Rinko Kikuchi)—who are teamed to drive a legendary but seemingly obsolete Jaeger from the past. Together, they stand as mankind's last hope against the mounting apocalypse.","release_date":"2013-07-11"},{"vote_count":6052,"id":13475,"video":false,"vote_average":7.4,"title":"Star Trek","popularity":18.513,"poster_path":"\/xPihqTMhCh6b8DHYzE61jrIiNMS.jpg","original_language":"en","original_title":"Star Trek","genre_ids":[878,28,12],"backdrop_path":"\/1XOSh6BFZbQ0xN75m4avqgzClyG.jpg","adult":false,"overview":"The fate of the galaxy rests in the hands of bitter rivals. One, James Kirk, is a delinquent, thrill-seeking Iowa farm boy. The other, Spock, a Vulcan, was raised in a logic-based society that rejects all emotion. As fiery instinct clashes with calm reason, their unlikely but powerful partnership is the only thing capable of leading their crew through unimaginable danger, boldly going where no one has gone before. The human adventure has begun again.","release_date":"2009-05-06"},{"vote_count":1454,"id":300671,"video":false,"vote_average":7,"title":"13 Hours: The Secret Soldiers of Benghazi","popularity":17.324,"poster_path":"\/4gpW4MkRI0BB17GHOJzXq0WamDP.jpg","original_language":"en","original_title":"13 Hours: The Secret Soldiers of Benghazi","genre_ids":[28,18,36,53,10752],"backdrop_path":"\/cVIb8GGPzASoN9j9z1jIJD942oJ.jpg","adult":false,"overview":"An American Ambassador is killed during an attack at a U.S. compound in Libya as a security team struggles to make sense out of the chaos.","release_date":"2016-01-13"},{"vote_count":5043,"id":602,"video":false,"vote_average":6.8,"title":"Independence Day","popularity":17.034,"poster_path":"\/bqLlWZJdhrS0knfEJRkquW7L8z2.jpg","original_language":"en","original_title":"Independence Day","genre_ids":[28,12,878],"backdrop_path":"\/4E2xKGrU2qcqUE2S3Nl27hwZdqy.jpg","adult":false,"overview":"On July 2, a giant alien mothership enters orbit around Earth and deploys several dozen saucer-shaped 'destroyer' spacecraft that quickly lay waste to major cities around the planet. On July 3, the United States conducts a coordinated counterattack that fails. On July 4, a plan is devised to gain access to the interior of the alien mothership in space, in order to plant a nuclear missile.","release_date":"1996-06-25"},{"vote_count":3390,"id":324668,"video":false,"vote_average":6.1,"title":"Jason Bourne","popularity":16.867,"poster_path":"\/lFSSLTlFozwpaGlO31OoUeirBgQ.jpg","original_language":"en","original_title":"Jason Bourne","genre_ids":[28,53],"backdrop_path":"\/dtFiuavnsnl0krJAeSmGAOFAhw2.jpg","adult":false,"overview":"The most dangerous former operative of the CIA is drawn out of hiding to uncover hidden truths about his past.","release_date":"2016-07-27"},{"vote_count":8650,"id":330459,"video":false,"vote_average":7.5,"title":"Rogue One: A Star Wars Story","popularity":16.793,"poster_path":"\/qjiskwlV1qQzRCjpV0cL9pEMF9a.jpg","original_language":"en","original_title":"Rogue One: A Star Wars Story","genre_ids":[28,12,878],"backdrop_path":"\/tZjVVIYXACV4IIIhXeIM59ytqwS.jpg","adult":false,"overview":"A rogue band of resistance fighters unite for a mission to steal the Death Star plans and bring a new hope to the galaxy.","release_date":"2016-12-14"},{"vote_count":2517,"id":311324,"video":false,"vote_average":5.8,"title":"The Great Wall","popularity":16.666,"poster_path":"\/p70dq1YxabemdZDm5K6Q8G10wSn.jpg","original_language":"en","original_title":"The Great Wall","genre_ids":[28,12,14],"backdrop_path":"\/rym1ecQJVj1NhZnigRePtiusorF.jpg","adult":false,"overview":"European mercenaries searching for black powder become embroiled in the defense of the Great Wall of China against a horde of monstrous creatures.","release_date":"2016-12-16"},{"vote_count":3396,"id":333484,"video":false,"vote_average":6.1,"title":"The Magnificent Seven","popularity":16.423,"poster_path":"\/cparcxTFuHdlSOP3MJOpN7Ec9NB.jpg","original_language":"en","original_title":"The Magnificent Seven","genre_ids":[12,28,37],"backdrop_path":"\/T3LrH6bnV74llVbFpQsCBrGaU9.jpg","adult":false,"overview":"Looking to mine for gold, greedy industrialist Bartholomew Bogue seizes control of the Old West town of Rose Creek. With their lives in jeopardy, Emma Cullen and other desperate residents turn to bounty hunter Sam Chisolm for help. Chisolm recruits an eclectic group of gunslingers to take on Bogue and his ruthless henchmen. With a deadly showdown on the horizon, the seven mercenaries soon find themselves fighting for more than just money once the bullets start to fly.","release_date":"2016-09-14"},{"vote_count":4012,"id":188927,"video":false,"vote_average":6.7,"title":"Star Trek Beyond","popularity":16.417,"poster_path":"\/mLrQMqyZgLeP8FrT5LCobKAiqmK.jpg","original_language":"en","original_title":"Star Trek Beyond","genre_ids":[28,12,878],"backdrop_path":"\/mGraqqKJIHe7AzQF1qOseD9BcZx.jpg","adult":false,"overview":"The USS Enterprise crew explores the furthest reaches of uncharted space, where they encounter a mysterious new enemy who puts them and everything the Federation stands for to the test.","release_date":"2016-07-07"},{"vote_count":5045,"id":2501,"video":false,"vote_average":7.4,"title":"The Bourne Identity","popularity":16.238,"poster_path":"\/bXQIL36VQdzJ69lcjQR1WQzJqQR.jpg","original_language":"en","original_title":"The Bourne Identity","genre_ids":[28,18,9648,53],"backdrop_path":"\/2Fr1vqBiDn8xRJM9elcplzHctTN.jpg","adult":false,"overview":"Wounded to the brink of death and suffering from amnesia, Jason Bourne is rescued at sea by a fisherman. With nothing to go on but a Swiss bank account number, he starts to reconstruct his life, but finds that many people he encounters want him dead. However, Bourne realizes that he has the combat and mental skills of a world-class spy—but who does he work for?","release_date":"2002-06-14"},{"vote_count":2142,"id":205584,"video":false,"vote_average":5.4,"title":"Gods of Egypt","popularity":16.101,"poster_path":"\/uPqAW07bGoljf3cmT5gecdOvVol.jpg","original_language":"en","original_title":"Gods of Egypt","genre_ids":[28,12,14,878],"backdrop_path":"\/xy74anT8ZGhUIGVoalnHrmRDHbQ.jpg","adult":false,"overview":"A common thief joins a mythical god on a quest through Egypt.","release_date":"2016-02-25"},{"vote_count":2424,"id":267860,"video":false,"vote_average":5.9,"title":"London Has Fallen","popularity":15.978,"poster_path":"\/9j2AmDhZvdwMyYKpqe4CtBkN1Tw.jpg","original_language":"en","original_title":"London Has Fallen","genre_ids":[28,80,53],"backdrop_path":"\/qh3huQzcRUXZZihUE0cV6kW0SuE.jpg","adult":false,"overview":"In London for the Prime Minister's funeral, Mike Banning discovers a plot to assassinate all the attending world leaders.","release_date":"2016-03-02"},{"vote_count":843,"id":302156,"video":false,"vote_average":5.9,"title":"Criminal","popularity":15.818,"poster_path":"\/6K5JOW6HmrwJnP0VILq667cspnS.jpg","original_language":"en","original_title":"Criminal","genre_ids":[28,80,878,53,9648,18],"backdrop_path":"\/hNXfIPwexOpZXmOww6ewoihMcfN.jpg","adult":false,"overview":"Bill Pope is a CIA agent on a mission in London tracking down a shadowy hacker nicknamed \"The Dutchman.\" When he gets mysteriously ambushed and killed, an experimental procedure is used to transfer his memories into dangerous ex-convict Jericho Stewart. When he wakes up with the CIA agent's memories, his mission is to find The Dutchman and eliminate him before the hacker launches ICBM's and starts World War III. But complications soon arise and the mission turns personal.","release_date":"2016-04-07"},{"vote_count":548,"id":334074,"video":false,"vote_average":5.5,"title":"Survivor","popularity":15.727,"poster_path":"\/XtvR1aSph7X3wqrE2PY66IPzVi.jpg","original_language":"en","original_title":"Survivor","genre_ids":[28,80,53],"backdrop_path":"\/tGxBYYSKSmBUpjSHDpRelsbNeBy.jpg","adult":false,"overview":"A Foreign Service Officer in London tries to prevent a terrorist attack set to hit New York, but is forced to go on the run when she is framed for crimes she did not commit.","release_date":"2015-05-21"},{"vote_count":478,"id":348893,"video":false,"vote_average":6.1,"title":"Boyka: Undisputed IV","popularity":15.527,"poster_path":"\/mWiqc87iTs1qujxm2Q0NRzGvWSN.jpg","original_language":"en","original_title":"Boyka: Undisputed IV","genre_ids":[53,28,80],"backdrop_path":"\/5dLLiR8IUT7T0r5HVcvRlItNWTn.jpg","adult":false,"overview":"In the fourth installment of the fighting franchise, Boyka is shooting for the big leagues when an accidental death in the ring makes him question everything he stands for. When he finds out the wife of the man he accidentally killed is in trouble, Boyka offers to fight in a series of impossible battles to free her from a life of servitude","release_date":"2016-08-01"},{"vote_count":1777,"id":278924,"video":false,"vote_average":5.6,"title":"Mechanic: Resurrection","popularity":15.345,"poster_path":"\/nhPKl3mDUPXpCrX5onoGmt6kC4U.jpg","original_language":"en","original_title":"Mechanic: Resurrection","genre_ids":[28,80,53],"backdrop_path":"\/6kMu4vECAyTpj2Z7n8viJ4RAaYh.jpg","adult":false,"overview":"Arthur Bishop thought he had put his murderous past behind him when his most formidable foe kidnaps the love of his life. Now he is forced to travel the globe to complete three impossible assassinations, and do what he does best, make them look like accidents.","release_date":"2016-08-25"},{"vote_count":2404,"id":296524,"video":false,"vote_average":6.7,"title":"Deepwater Horizon","popularity":15.322,"poster_path":"\/7D6hM7IR0TbQmNvSZVtEiPM3H5h.jpg","original_language":"en","original_title":"Deepwater Horizon","genre_ids":[18,28],"backdrop_path":"\/1R2wRq5aZJHMmg3gUlqw2uSdj2t.jpg","adult":false,"overview":"A story set on the offshore drilling rig Deepwater Horizon, which exploded during April 2010 and created the worst oil spill in U.S. history.","release_date":"2016-09-29"},{"vote_count":3311,"id":80274,"video":false,"vote_average":6.6,"title":"Ender's Game","popularity":15.099,"poster_path":"\/zHRNhCkrFEMoudPr0uics5WZe7j.jpg","original_language":"en","original_title":"Ender's Game","genre_ids":[878,28,12],"backdrop_path":"\/ulmVm23hsiopEsgVksgdYJSVlWR.jpg","adult":false,"overview":"Based on the classic novel by Orson Scott Card, Ender's Game is the story of the Earth's most gifted children training to defend their homeplanet in the space wars of the future.","release_date":"2013-10-23"}]}