{"page":5,"total_results":1097,"total_pages":55,"results":[{"vote_count":1067,"id":331313,"video":false,"vote_average":6,"title":"Keeping Up with the Joneses","popularity":10.198,"poster_path":"\/ekg8qeNidEQ1ylHeahLtsTLPe2k.jpg","original_language":"en","original_title":"Keeping Up with the Joneses","genre_ids":[28,35],"backdrop_path":"\/f1Q6vZF5TlXZHAihXD1iJQ4HjjE.jpg","adult":false,"overview":"An ordinary suburban couple finds it’s not easy keeping up with the Joneses – their impossibly gorgeous and ultra-sophisticated new neighbors – especially when they discover that Mr. and Mrs. “Jones” are covert operatives.","release_date":"2016-10-20"},{"vote_count":307,"id":195590,"video":false,"vote_average":5.7,"title":"Collide","popularity":10.135,"poster_path":"\/7WqR10HKafhzE9LXEYg0AtM4J6O.jpg","original_language":"en","original_title":"Collide","genre_ids":[53,28],"backdrop_path":"\/eVct9lH9AkLZ8x72Ld0xxfnwZn9.jpg","adult":false,"overview":"An American backpacker gets involved with a ring of drug smugglers as their driver, and winds up on the run from his employers across Munich's autobahns.","release_date":"2016-08-04"},{"vote_count":294,"id":234004,"video":false,"vote_average":5.4,"title":"Ratchet & Clank","popularity":10.023,"poster_path":"\/q4KgzBRorknuSeQN1q8jxlyg8ux.jpg","original_language":"en","original_title":"Ratchet & Clank","genre_ids":[28,12,16,10751],"backdrop_path":"\/uCDW54qYqiw9Gonc10cEgOb4tc5.jpg","adult":false,"overview":"Ratchet and Clank tells the story of two unlikely heroes as they struggle to stop a vile alien named Chairman Drek from destroying every planet in the Solana Galaxy. When the two stumble upon a dangerous weapon capable of destroying entire planets, they must join forces with a team of colorful heroes called The Galactic Rangers in order to save the galaxy. Along the way they'll learn about heroism, friendship, and the importance of discovering one's own identity.","release_date":"2016-04-13"},{"vote_count":1003,"id":26389,"video":false,"vote_average":6.2,"title":"From Paris with Love","popularity":10.004,"poster_path":"\/41yioNp9apJ7xtYDaSxqBfm1p5T.jpg","original_language":"en","original_title":"From Paris with Love","genre_ids":[28,80,53],"backdrop_path":"\/njU7eai9g5RHgyTKl8RbvQ8dys6.jpg","adult":false,"overview":"James Reese has a good job as an ambassador's aid in France, but his real passion is a side gig, working in a minor role in the CIA. He would love to be a full-fledged agent and can't believe his luck when he lands an assignment with Charlie Wax. Trigger-happy Charlie soon has James crying for his desk job, but when he learns that the same guys they're trying to catch are after him, James realizes that Charlie may be his only hope of survival.","release_date":"2010-02-05"},{"vote_count":1200,"id":325348,"video":false,"vote_average":6.2,"title":"Hardcore Henry","popularity":9.808,"poster_path":"\/qfWLO0iXmbvxzyk0ez4pXrgkRDM.jpg","original_language":"en","original_title":"Hardcore Henry","genre_ids":[28,12,878],"backdrop_path":"\/9VuuDSIJvmZknv8EMqPQyIi6D5S.jpg","adult":false,"overview":"Henry, a newly resurrected cyborg who must save his wife\/creator from the clutches of a psychotic tyrant with telekinetic powers, AKAN, and his army of mercenaries. Fighting alongside Henry is Jimmy, who is Henry's only hope to make it through the day. Hardcore takes place over the course of one day, in Moscow, Russia.","release_date":"2015-09-12"},{"vote_count":989,"id":213681,"video":false,"vote_average":5.7,"title":"Masterminds","popularity":9.75,"poster_path":"\/uPUO9Fvvt0mkxrr5vfuHB8dU3p7.jpg","original_language":"en","original_title":"Masterminds","genre_ids":[28,35,80],"backdrop_path":"\/fVltpTyYAfI3tPgle4lX7u80MQV.jpg","adult":false,"overview":"A night guard at an armored car company in the Southern U.S. organizes one of the biggest bank heists in American history.","release_date":"2016-09-29"},{"vote_count":519,"id":336882,"video":false,"vote_average":6.5,"title":"The Wave","popularity":9.579,"poster_path":"\/AnPHblkG8rcFeQVDa0BZXfNrhGs.jpg","original_language":"no","original_title":"Bølgen","genre_ids":[28,18,53],"backdrop_path":"\/ciGvbbeeSXN6rciPaXYDrKh9mEp.jpg","adult":false,"overview":"Based on the fact that mountain party Åkneset, located in the Geiranger fjord in Norway, one day will race out and create a violent tsunami of over 80 meters that will crush everything in its path before it hits land in Geiranger. A geologist gets caught in the middle of it and a race against time begins.","release_date":"2015-08-28"},{"vote_count":783,"id":287948,"video":false,"vote_average":5.4,"title":"The Transporter Refueled","popularity":9.511,"poster_path":"\/zW7oC3tucYLzu77xNbPbYjXUN4o.jpg","original_language":"en","original_title":"The Transporter Refueled","genre_ids":[53,28,80,9648],"backdrop_path":"\/wxC0fO9fkNvdLr2joeE4AypuA3s.jpg","adult":false,"overview":"The fast-paced action movie is again set in the criminal underworld in France, where Frank Martin is known as The Transporter, because he is the best driver and mercenary money can buy. In this installment, he meets Anna and they attempt to take down a group of ruthless Russian human traffickers who also have kidnapped Frank’s father.","release_date":"2015-09-03"},{"vote_count":305,"id":315011,"video":false,"vote_average":6.6,"title":"Shin Godzilla","popularity":9.456,"poster_path":"\/8YWirGQidtZeSEmhqvQM5FrI6N1.jpg","original_language":"ja","original_title":"シン・ゴジラ","genre_ids":[28,12,18,27,878],"backdrop_path":"\/gRygsij8I5N6o894bIpzCXxquSi.jpg","adult":false,"overview":"From the mind behind Evangelion comes a hit larger than life.  When a massive, gilled monster emerges from the deep and tears through the city, the government scrambles to save its citizens.  A rag-tag team of volunteers cuts through a web of red tape to uncover the monster's weakness and its mysterious ties to a foreign superpower.  But time is not on their side - the greatest catastrophe to ever befall the world is about to evolve right before their very eyes.","release_date":"2016-07-29"},{"vote_count":180,"id":399173,"video":false,"vote_average":5,"title":"The Assignment","popularity":9.434,"poster_path":"\/wZGnnA9TVbZL81T9at8eHnZoCq4.jpg","original_language":"en","original_title":"The Assignment","genre_ids":[28,80,53],"backdrop_path":"\/j4eGK1WH9YZWoDNDM9mAsF3mhLx.jpg","adult":false,"overview":"Ace assassin Frank Kitchen is double crossed by gangsters and falls into the hands of rogue surgeon known as The Doctor who turns him into a woman. The hitman, now a hitwoman, sets out for revenge, aided by a nurse named Johnnie who also has secrets.","release_date":"2016-04-27"},{"vote_count":495,"id":334521,"video":false,"vote_average":6.3,"title":"Free Fire","popularity":9.38,"poster_path":"\/cH7HT8MlNrRb1Tx3QD0Q3HC3pXN.jpg","original_language":"en","original_title":"Free Fire","genre_ids":[28,80,53,9648],"backdrop_path":"\/le2X3o9uopj1jMcMKFDKQ7MdBxb.jpg","adult":false,"overview":"A crime drama set in 1970s Boston, about a gun sale which goes wrong.","release_date":"2017-03-31"},{"vote_count":272,"id":184125,"video":false,"vote_average":5.9,"title":"Assault on Wall Street","popularity":9.332,"poster_path":"\/5MPJ0anWmqo29DCbUMgE2ZPzGJx.jpg","original_language":"en","original_title":"Assault on Wall Street","genre_ids":[18,53,28],"backdrop_path":"\/13aAN3iqwiYQ8TAKUCDgHl1DNxU.jpg","adult":false,"overview":"Jim is an average New Yorker living a peaceful life with a well paying job and a loving family. Suddenly, everything changes when the economy crashes causing Jim to lose everything. Filled with anger and rage, Jim snaps and goes to extreme lengths to seek revenge for the life taken from him.","release_date":"2013-06-30"},{"vote_count":546,"id":11645,"video":false,"vote_average":8.1,"title":"Ran","popularity":9.235,"poster_path":"\/dwYUbrcQAyshW22yoUTzWwwC67b.jpg","original_language":"ja","original_title":"乱","genre_ids":[28,18,36],"backdrop_path":"\/3QWR9tyxLtCz7xANh7nyIxYPISp.jpg","adult":false,"overview":"With Ran, legendary director Akira Kurosawa reimagines Shakespeare's King Lear as a singular historical epic set in sixteenth-century Japan. Majestic in scope, the film is Kurosawa's late-life masterpiece, a profound examination of the folly of war and the crumbling of one family under the weight of betrayal, greed, and the insatiable thirst for power.","release_date":"1985-06-01"},{"vote_count":60,"id":360055,"video":false,"vote_average":5.9,"title":"Riot","popularity":9.216,"poster_path":"\/5Q2pHzDfJ8QlUA2vx2yAXWJkof7.jpg","original_language":"en","original_title":"Riot","genre_ids":[28],"backdrop_path":"\/toelzaApXfuyFN3ixqK7yNvAvBz.jpg","adult":false,"overview":"Copper Jack Stone purposefully orchestrates a bank robbery in order to be thrown into prison with the notorious Russian kingpin Balam. Balam is more than just a mob criminal; he's a very cunning and dangerous lord who controls the police force from behind bars. Balam lives in prison as a cover for his real power, which is King of the city. His cell is a lavish private room built specifically for him, inaccessible to most in the depths of the prison structure. Even the warden fears venturing into his area of the prison. However, even surrounded by his loyal henchmen and guards in his sectioned off fortress, Balam doesn't know Jack is coming for him to avenge his family, who Balam murdered in cold blood. Balam is tough... but Jack is tougher.","release_date":"2015-09-27"},{"vote_count":864,"id":323675,"video":false,"vote_average":6.2,"title":"Ride Along 2","popularity":9.075,"poster_path":"\/A739odgY2FjoLvYLYdypUc6GpaY.jpg","original_language":"en","original_title":"Ride Along 2","genre_ids":[28,35],"backdrop_path":"\/dtX3rNnjVSqaDiEXHzC78KiyIsc.jpg","adult":false,"overview":"As his wedding day approaches, Ben heads to Miami with his soon-to-be brother-in-law James to bring down a drug dealer who's supplying the dealers of Atlanta with product.","release_date":"2016-01-14"},{"vote_count":930,"id":268920,"video":false,"vote_average":5.5,"title":"Hot Pursuit","popularity":9.068,"poster_path":"\/rQSebx3Ie1TL12TbHwFoVqRMU5r.jpg","original_language":"en","original_title":"Hot Pursuit","genre_ids":[28,35,80],"backdrop_path":"\/5YeCBUaIM041jN88w1QzNzPNyZp.jpg","adult":false,"overview":"An uptight by-the-book cop must protect the widow of a drug boss from crooked cops and gunmen.","release_date":"2015-05-08"},{"vote_count":605,"id":9386,"video":false,"vote_average":6.9,"title":"In the Line of Fire","popularity":8.896,"poster_path":"\/bmeD5LdQiRaZmVHbySXw6WJgAVA.jpg","original_language":"en","original_title":"In the Line of Fire","genre_ids":[28,18,53,80,9648],"backdrop_path":"\/wrmr8lCW7EPHLbFe1GjnyZZecGL.jpg","adult":false,"overview":"Veteran Secret Service agent Frank Horrigan is a man haunted by his failure to save President Kennedy while serving protection detail in Dallas. Thirty years later, a man calling himself \"Booth\" threatens the life of the current President, forcing Horrigan to come back to protection detail to confront the ghosts from his past.","release_date":"1993-07-08"},{"vote_count":554,"id":248574,"video":false,"vote_average":5.7,"title":"Barely Lethal","popularity":8.748,"poster_path":"\/nJm0vGJVyELlQEzHRq22vi2JHbW.jpg","original_language":"en","original_title":"Barely Lethal","genre_ids":[28,12,35],"backdrop_path":"\/scoMZVgdqBM7vqZaEbhQXJd7jOL.jpg","adult":false,"overview":"A 16-year-old international assassin yearning for a \"normal\" adolescence fakes her own death and enrolls as a senior in a suburban high school. She quickly learns that being popular can be more painful than getting water-boarded.","release_date":"2015-04-30"},{"vote_count":662,"id":333385,"video":false,"vote_average":6.4,"title":"Mr. Right","popularity":8.731,"poster_path":"\/y1VT2NoBOx3aC2exhkyN9AGUkMR.jpg","original_language":"en","original_title":"Mr. Right","genre_ids":[35,28,10749],"backdrop_path":"\/pEQVSTEuYOOBAzbD7VzBea2KlCs.jpg","adult":false,"overview":"A girl falls for the \"perfect\" guy, who happens to have a very fatal flaw: he's a hitman on the run from the crime cartels who employ him.","release_date":"2016-02-29"},{"vote_count":902,"id":241848,"video":false,"vote_average":6.5,"title":"The Guest","popularity":8.702,"poster_path":"\/xxSuU7Q9ZmPjw9TNQ1WzmHVAxBI.jpg","original_language":"en","original_title":"The Guest","genre_ids":[9648,53,28],"backdrop_path":"\/dQ1eV5vn9794wsdpqe7QGK4Yo99.jpg","adult":false,"overview":"A soldier introduces himself to the Peterson family, claiming to be a friend of their son who died in action. After the young man is welcomed into their home, a series of accidental deaths seem to be connected to his presence.","release_date":"2014-09-17"}]}