{"page":4,"total_results":1097,"total_pages":55,"results":[{"vote_count":828,"id":256961,"video":false,"vote_average":5,"title":"Paul Blart: Mall Cop 2","popularity":12.565,"poster_path":"\/oENngJWMtyH19LERE9DfLHkFBu6.jpg","original_language":"en","original_title":"Paul Blart: Mall Cop 2","genre_ids":[28,35,10751],"backdrop_path":"\/5W6XO9KjLRY6W9wGojpzK8EqEgQ.jpg","adult":false,"overview":"Security guard Paul Blart is headed to Las Vegas to attend a Security Guard Expo with his teenage daughter Maya before she departs for college. While at the convention, he inadvertently discovers a heist - and it's up to Blart to apprehend the criminals.","release_date":"2015-04-16"},{"vote_count":3279,"id":9693,"video":false,"vote_average":7.6,"title":"Children of Men","popularity":12.4,"poster_path":"\/gZ6i32Da76EUxta06GL2BxpC4Cn.jpg","original_language":"en","original_title":"Children of Men","genre_ids":[18,28,53,878],"backdrop_path":"\/c5jNuPA19oGiEmbh8iFeAi6aHMI.jpg","adult":false,"overview":"In 2027, in a chaotic world in which humans can no longer procreate, a former activist agrees to help transport a miraculously pregnant woman to a sanctuary at sea, where her child's birth may help scientists save the future of humankind.","release_date":"2006-09-22"},{"vote_count":689,"id":341006,"video":false,"vote_average":6.1,"title":"The Belko Experiment","popularity":12.399,"poster_path":"\/faJK0dP3S92kQoKtO4LZMjy41kf.jpg","original_language":"en","original_title":"The Belko Experiment","genre_ids":[28,53],"backdrop_path":"\/7pMlmyqitl0nqpEGOL3v8dEbu2K.jpg","adult":false,"overview":"A group of eighty American workers are locked in their office and ordered by an unknown voice to participate in a twisted game.","release_date":"2016-03-17"},{"vote_count":1990,"id":205775,"video":false,"vote_average":6.6,"title":"In the Heart of the Sea","popularity":12.134,"poster_path":"\/zVmWh0Zfg4UhbvdGI8LQrn1lQZJ.jpg","original_language":"en","original_title":"In the Heart of the Sea","genre_ids":[53,18,12,28,36],"backdrop_path":"\/41vanBJhYWuACVHvX7rk2Jmqbb4.jpg","adult":false,"overview":"In the winter of 1820, the New England whaling ship Essex was assaulted by something no one could believe: a whale of mammoth size and will, and an almost human sense of vengeance.  The real-life maritime disaster would inspire Herman Melville’s Moby Dick.  But that told only half the story.  “Heart of the Sea” reveals the encounter’s harrowing aftermath, as the ship’s surviving crew is pushed to their limits and forced to do the unthinkable to stay alive.  Braving storms, starvation, panic and despair, the men will call into question their deepest beliefs, from the value of their lives to the morality of their trade, as their captain searches for direction on the open sea and his first mate still seeks to bring the great whale down.","release_date":"2015-11-20"},{"vote_count":1183,"id":146198,"video":false,"vote_average":5.8,"title":"Triple 9","popularity":11.748,"poster_path":"\/36zbHT728v00HbbUBmrsOMu7Hde.jpg","original_language":"en","original_title":"Triple 9","genre_ids":[28,53,9648],"backdrop_path":"\/paT9Ovofjj30JvsDRyhFfjgUEfn.jpg","adult":false,"overview":"A gang of criminals and corrupt cops plan the murder of a police officer in order to pull off their biggest heist yet across town.","release_date":"2016-02-19"},{"vote_count":3765,"id":68735,"video":false,"vote_average":6.3,"title":"Warcraft","popularity":11.725,"poster_path":"\/ckrTPz6FZ35L5ybjqvkLWzzSLO7.jpg","original_language":"en","original_title":"Warcraft","genre_ids":[28,12,14],"backdrop_path":"\/5SX2rgKXZ7NVmAJR5z5LprqSXKa.jpg","adult":false,"overview":"The peaceful realm of Azeroth stands on the brink of war as its civilization faces a fearsome race of invaders: orc warriors fleeing their dying home to colonize another. As a portal opens to connect the two worlds, one army faces destruction and the other faces extinction. From opposing sides, two heroes are set on a collision course that will decide the fate of their family, their people, and their home.","release_date":"2016-05-25"},{"vote_count":1167,"id":267193,"video":false,"vote_average":5.8,"title":"Grimsby","popularity":11.67,"poster_path":"\/iqWRyStIQikuQkZxEfkss8NqsbS.jpg","original_language":"en","original_title":"Grimsby","genre_ids":[28,35],"backdrop_path":"\/s04T6oIdglrbsZ1WPK2p20J9jag.jpg","adult":false,"overview":"Wrongfully accused and on the run, a top MI6 assassin joins forces with his long-lost, football hooligan brother to save the world from a sinister plot.","release_date":"2016-02-24"},{"vote_count":2839,"id":302699,"video":false,"vote_average":6.2,"title":"Central Intelligence","popularity":11.588,"poster_path":"\/9M5ibpQUjoVFjjnP2AdLcof4hAk.jpg","original_language":"en","original_title":"Central Intelligence","genre_ids":[28,35,9648],"backdrop_path":"\/zaGmoSackrRF7w6NieQ0FWY0M7k.jpg","adult":false,"overview":"After he reunites with an old pal through Facebook, a mild-mannered accountant is lured into the world of international espionage.","release_date":"2016-06-15"},{"vote_count":701,"id":316152,"video":false,"vote_average":6.6,"title":"Free State of Jones","popularity":11.574,"poster_path":"\/tQcwB5nXpN4vH5ewP79tyXJcA1I.jpg","original_language":"en","original_title":"Free State of Jones","genre_ids":[28,18,36,10752],"backdrop_path":"\/zgo0s1fmBCWUweNrCVIK1dZEOJ6.jpg","adult":false,"overview":"In 1863, Mississippi farmer Newt Knight serves as a medic for the Confederate Army. Opposed to slavery, Knight would rather help the wounded than fight the Union. After his nephew dies in battle, Newt returns home to Jones County to safeguard his family but is soon branded an outlaw deserter. Forced to flee, he finds refuge with a group of runaway slaves hiding out in the swamps. Forging an alliance with the slaves and other farmers, Knight leads a rebellion that would forever change history.","release_date":"2016-06-24"},{"vote_count":777,"id":309886,"video":false,"vote_average":6.1,"title":"Blood Father","popularity":11.398,"poster_path":"\/rQ3CKv33u2Z4keC2AYZqi3RGIdX.jpg","original_language":"en","original_title":"Blood Father","genre_ids":[28,53,18],"backdrop_path":"\/4aWNF3HT0ryJNLWTxtxBuMFrd3O.jpg","adult":false,"overview":"An ex-con reunites with his estranged wayward 16-year old daughter to protect her from drug dealers who are trying to kill her.","release_date":"2016-08-11"},{"vote_count":1009,"id":271969,"video":false,"vote_average":5.5,"title":"Ben-Hur","popularity":11.124,"poster_path":"\/gq6wTEw3ViZr4n4vL1dBlRBVjBc.jpg","original_language":"en","original_title":"Ben-Hur","genre_ids":[28,12,18],"backdrop_path":"\/ceJWH2bq7voYYWNNDtkBQ4oGXFQ.jpg","adult":false,"overview":"A falsely accused nobleman survives years of slavery to take vengeance on his best friend who betrayed him.","release_date":"2016-08-17"},{"vote_count":1183,"id":257088,"video":false,"vote_average":5.6,"title":"Point Break","popularity":10.988,"poster_path":"\/4zfbf70df2ySChbsIEjhAC9oXJ1.jpg","original_language":"en","original_title":"Point Break","genre_ids":[28,80,53],"backdrop_path":"\/x2JJGVftWfx2JGyqW6pqP3JrkO0.jpg","adult":false,"overview":"A young undercover FBI agent infiltrates a gang of thieves who share a common interest in extreme sports. A remake of the 1991 film, \"Point Break\".","release_date":"2015-12-03"},{"vote_count":2166,"id":2789,"video":false,"vote_average":6.4,"title":"The Chronicles of Riddick","popularity":10.973,"poster_path":"\/hVAfGskQdktDwYTqrT7wY1f2M4y.jpg","original_language":"en","original_title":"The Chronicles of Riddick","genre_ids":[28,878],"backdrop_path":"\/AoLVfcYPziZZQbAFQuKoceHreXD.jpg","adult":false,"overview":"After years of outrunning ruthless bounty hunters, escaped convict Riddick suddenly finds himself caught between opposing forces in a fight for the future of the human race. Now, waging incredible battles on fantastic and deadly worlds, this lone, reluctant hero will emerge as humanity's champion - and the last hope for a universe on the edge of annihilation.","release_date":"2004-06-11"},{"vote_count":876,"id":300673,"video":false,"vote_average":6.4,"title":"The Finest Hours","popularity":10.753,"poster_path":"\/5vfRMplGxOzMiJu0FGFCA1ic44Q.jpg","original_language":"en","original_title":"The Finest Hours","genre_ids":[28,18,36,53],"backdrop_path":"\/a6VvlnIRTJTPUnyf1tIV9kEJO27.jpg","adult":false,"overview":"The Coast Guard makes a daring rescue attempt off the coast of Cape Cod after a pair of oil tankers are destroyed during a blizzard in 1952.","release_date":"2016-01-25"},{"vote_count":619,"id":365222,"video":false,"vote_average":6.7,"title":"Ip Man 3","popularity":10.708,"poster_path":"\/3WD6E1QcYQHNMPWXEvtivyQ7waQ.jpg","original_language":"cn","original_title":"葉問3","genre_ids":[28,18,36],"backdrop_path":"\/bJYOKWgfz89m62LJ2jW0ZESet1I.jpg","adult":false,"overview":"When a band of brutal gangsters led by a crooked property developer make a play to take over the city, Master Ip is forced to take a stand.","release_date":"2015-12-19"},{"vote_count":3851,"id":290250,"video":false,"vote_average":7.1,"title":"The Nice Guys","popularity":10.645,"poster_path":"\/vNCeqxbKyDHL9LUza03V2Im16wB.jpg","original_language":"en","original_title":"The Nice Guys","genre_ids":[28,35,80,9648],"backdrop_path":"\/a7eSkK4bkLwKCXYDdYIqLxrqT2n.jpg","adult":false,"overview":"A private eye investigates the apparent suicide of a fading porn star in 1970s Los Angeles and uncovers a conspiracy.","release_date":"2016-05-15"},{"vote_count":154,"id":391757,"video":false,"vote_average":6.5,"title":"Never Back Down: No Surrender","popularity":10.54,"poster_path":"\/dYNS4o4Q4DDLiKRAAvZ9KcrhHuy.jpg","original_language":"en","original_title":"Never Back Down: No Surrender","genre_ids":[18,28],"backdrop_path":"\/pzjnObK3uiHcKwiir9OPPWzbW8f.jpg","adult":false,"overview":"Picking up after the events of Never Back Down 2, former MMA champion Case Walker is on the comeback trail to become champion once again.","release_date":"2016-06-07"},{"vote_count":943,"id":203739,"video":false,"vote_average":5.9,"title":"Vampire Academy","popularity":10.514,"poster_path":"\/cJZpKgiFfjDZ6L5aOJvbmDhsGqY.jpg","original_language":"en","original_title":"Vampire Academy","genre_ids":[35,28,14],"backdrop_path":"\/lZjdesSUjlbIUQ0q0ANNqxH0GEV.jpg","adult":false,"overview":"Rose, a rebellious half-vampire\/half-human guardian-in-training and her best friend, Lissa -- a mortal, royal vampire Princess - have been on the run when they are captured and returned to St. Vladamirs Academy, the very place where they believe their lives may be in most jeopardy. Rose will sacrifice everything to protect Lissa from those who intend to exploit her from within the Academy walls and the Strigoi (immortal, evil vampires) who hunt her kind from outside its sanctuary.","release_date":"2014-02-07"},{"vote_count":295,"id":340945,"video":false,"vote_average":5.9,"title":"USS Indianapolis: Men of Courage","popularity":10.503,"poster_path":"\/kLzOqLE3JyarkaRrtlDBLt8Orlx.jpg","original_language":"en","original_title":"USS Indianapolis: Men of Courage","genre_ids":[28,10752],"backdrop_path":"\/g3vLSV74I8X9RVdd9rZpfTPTCp8.jpg","adult":false,"overview":"The harrowing true story of the crew of the USS Indianapolis, who were stranded in the Philippine Sea for five days after delivering the atomic weapons that would eventually end WWII. As they awaited rescue, they endured extreme thirst, hunger, and relentless shark attacks.","release_date":"2016-09-22"},{"vote_count":230,"id":300168,"video":false,"vote_average":6,"title":"Dragon Blade","popularity":10.345,"poster_path":"\/3gl11EsZS5vboQvvMYeCIzitaJz.jpg","original_language":"zh","original_title":"天將雄師","genre_ids":[28,18,12],"backdrop_path":"\/vYCZUg7APqwyUxqOdCJwz9U0zou.jpg","adult":false,"overview":"Huo An, the commander of the Protection Squad of the Western Regions, was framed by evil forces and becomes enslaved. On the other hand, a Roman general escapes to China after rescuing the Prince. The heroic duo meet in the Western Desert and a thrilling story unfolds.","release_date":"2015-02-19"}]}