{"page":7,"total_results":1097,"total_pages":55,"results":[{"vote_count":209,"id":256040,"video":false,"vote_average":7.3,"title":"Baahubali: The Beginning","popularity":7.819,"poster_path":"\/5uurRfH9KdMiecCNTzO1MSi9Tqw.jpg","original_language":"te","original_title":"Baahubali: The Beginning","genre_ids":[28,14,18],"backdrop_path":"\/mkoBtgOKfoMHyZ3IW8opGRZim6S.jpg","adult":false,"overview":"The young Shivudu is left as a foundling in a small village by his mother. By the time he’s grown up, it has become apparent that he possesses exceptional gifts. He meets the beautiful warrior\/princess Avanthika and learns that her queen has been held captive for the last 25 years. Shividu sets off to rescue her, discovering his own origins in the process.","release_date":"2015-07-10"},{"vote_count":123,"id":334298,"video":false,"vote_average":5.7,"title":"Monster Hunt","popularity":7.752,"poster_path":"\/csMASFudtPSyVEFl4qq2Sm5lflM.jpg","original_language":"zh","original_title":"捉妖记","genre_ids":[28,35,14],"backdrop_path":"\/4eXO4xhmDxdESdczSS1sfR2ay98.jpg","adult":false,"overview":"Young monster kids try to make peace between the world of humans and the world of the monsters.","release_date":"2015-07-16"},{"vote_count":206,"id":9846,"video":false,"vote_average":7,"title":"To Live and Die in L.A.","popularity":7.744,"poster_path":"\/2iW3pSihBIhXjnBQmUJ0mAiZbB5.jpg","original_language":"en","original_title":"To Live and Die in L.A.","genre_ids":[28,80,53],"backdrop_path":"\/ocE4hWL5ulV2OHckkzqXcmdNLBP.jpg","adult":false,"overview":"A fearless Secret Service agent will stop at nothing to bring down the counterfeiter who killed his partner.","release_date":"1985-11-01"},{"vote_count":339,"id":366924,"video":false,"vote_average":7,"title":"Batman: Bad Blood","popularity":7.67,"poster_path":"\/wDajiBlfMD4eCZKnC6asDCY0509.jpg","original_language":"en","original_title":"Batman: Bad Blood","genre_ids":[28,16,878],"backdrop_path":"\/1jpJpe5sx0AzSLOMFfds0s5alSw.jpg","adult":false,"overview":"Bruce Wayne is missing. Alfred covers for him while Nightwing and Robin patrol Gotham City in his stead. And a new player, Batwoman, investigates Batman's disappearance.","release_date":"2016-03-22"},{"vote_count":273,"id":332411,"video":false,"vote_average":4.9,"title":"I Am Wrath","popularity":7.637,"poster_path":"\/1fbNrOS3OLb67d7q5gZ84fPFZD.jpg","original_language":"en","original_title":"I Am Wrath","genre_ids":[28,80,18,53],"backdrop_path":"\/1lmqCxpcmfZDfs2a76PmDVlB97s.jpg","adult":false,"overview":"A man is out for justice after a group of corrupt police officers are unable to catch his wife's killer.","release_date":"2016-04-14"},{"vote_count":278,"id":384798,"video":false,"vote_average":5.2,"title":"Kill Command","popularity":7.61,"poster_path":"\/nl9e5LIYMOYskBV48AcvEc8FUZi.jpg","original_language":"en","original_title":"Kill Command","genre_ids":[28,27,878],"backdrop_path":"\/kfx9xzuTIkkDxi5pAl2khj7bgWO.jpg","adult":false,"overview":"Set in a near future, technology-reliant society that pits man against killing machines. Against this backdrop an elite army unit is helicoptered to a remote, off-the-grid island training facility. What starts out as a simple training exercise for Captain Bukes and his tight-knit unit, descends into a terrifying battle to the death, as the marines discover the island is overrun by an enemy that transcends the human concept of evil.","release_date":"2016-05-13"},{"vote_count":608,"id":333669,"video":false,"vote_average":6.1,"title":"Bastille Day","popularity":7.597,"poster_path":"\/8QcOMU8vFSInSJ1kE7Naor7L2vM.jpg","original_language":"en","original_title":"Bastille Day","genre_ids":[28],"backdrop_path":"\/hb8brf5uYGt2t1qy33I5fHvmPkM.jpg","adult":false,"overview":"Michael Mason is an American pickpocket living in Paris who finds himself hunted by the CIA when he steals a bag that contains more than just a wallet. Sean Briar, the field agent on the case, soon realises that Michael is just a pawn in a much bigger game and is also his best asset to uncover a large-scale conspiracy.","release_date":"2016-04-22"},{"vote_count":574,"id":171424,"video":false,"vote_average":5.2,"title":"The Green Inferno","popularity":7.58,"poster_path":"\/prG32jWEgiZ2N8BpBPu1G0jMiv2.jpg","original_language":"en","original_title":"The Green Inferno","genre_ids":[28,12,27,53],"backdrop_path":"\/gX2nkTe2RI2RCM9BsNe1yyNWKFa.jpg","adult":false,"overview":"A group of student activists travel from New York City to the Amazon to save the rainforest.  However, once they arrive in this vast green landscape, they soon discover that they are not alone… and that no good deed goes unpunished.","release_date":"2014-09-04"},{"vote_count":293,"id":292040,"video":false,"vote_average":5.9,"title":"Spooks: The Greater Good","popularity":7.578,"poster_path":"\/mCu8mJRbBD8x187A5WserM9YhOr.jpg","original_language":"en","original_title":"Spooks: The Greater Good","genre_ids":[53,28],"backdrop_path":"\/7qSldyO9zJl0NIFJBdLzTxRh53E.jpg","adult":false,"overview":"During a handover to the head of counter-terrorism of MI5, Harry Pearce, a terrorist escapes custody. When Harry disappears soon after, his protégé is tasked with finding out what happened as an impending attack on London looms, and eventually uncovers a deadly conspiracy.","release_date":"2015-04-11"},{"vote_count":89,"id":327833,"video":false,"vote_average":5.6,"title":"Skin Trade","popularity":7.486,"poster_path":"\/eAJMi9iyTYvGoONH04MgkNseEvw.jpg","original_language":"en","original_title":"Skin Trade","genre_ids":[53,28,18],"backdrop_path":"\/A9bC8RJ82X7hk5UwxGolG3WVOfF.jpg","adult":false,"overview":"After his family is killed by a Serbian gangster with international interests. NYC detective Nick goes to S.E. Asia and teams up with a Thai detective to get revenge and destroy the syndicates human trafficking network.","release_date":"2014-11-07"},{"vote_count":82,"id":321068,"video":false,"vote_average":6,"title":"Mythica: A Quest for Heroes","popularity":7.416,"poster_path":"\/3Wz15vPjgN3avkMMD6nkVjS4Kf7.jpg","original_language":"en","original_title":"Mythica: A Quest for Heroes","genre_ids":[28,12,14],"backdrop_path":"\/ytZxOUICU5c3kClPwrhEDENEun1.jpg","adult":false,"overview":"Stuck in a life of indentured servitude, Marek dreams of becoming a wizard. When she meets a beautiful priestess, Teela, in need of help, Marek escapes her master and puts together a team of adventurers - including Thane the warrior and Dagen the half-elf thief – and embarks on an epic quest to free Teela’s sister from orcs and ogres. After raiding the orc camp, the group learns that Teela’s sister has been taken into the mountains by a giant ogre. Escaping hellhounds and dragons on their dangerous journey, the team find themselves hopelessly outmatched by the man-eating ogre, and must unite all their talents to free the prisoners and escape with their own lives.","release_date":"2014-12-08"},{"vote_count":171,"id":308529,"video":false,"vote_average":4.6,"title":"Kickboxer: Vengeance","popularity":7.411,"poster_path":"\/fHwikdzHy8btv7Rn1eRGe9rvLVO.jpg","original_language":"en","original_title":"Kickboxer: Vengeance","genre_ids":[28,18],"backdrop_path":"\/r1Ei4M6eLiooPTQ4ej7Ikub9lJt.jpg","adult":false,"overview":"Eric and Kurt Sloane are the descendants of a well-known Venice, California-based family of martial artists.  Kurt, the younger of the two,  has always been in his brother Eric’s shadow, and despite his talent has been told he lacks the instinct needed to become a champion.  But when Kurt witnesses the merciless murder of his brother at the hands of Muay Thai champion Tong Po, he vows revenge.  He trains with his brother’s mentor for a fight to the death with Tong Po. At first it seems impossible to turn Kurt into the living weapon he must become to beat Tong Po, but through a series of tests and dangerous encounters, Kurt proves he has a deeper strength that will carry him through to his final showdown with Tong Po.","release_date":"2016-07-14"},{"vote_count":304,"id":277355,"video":false,"vote_average":5.2,"title":"Everly","popularity":7.361,"poster_path":"\/dU7fJCSeZCjnoqb57HUQCZwwAhA.jpg","original_language":"en","original_title":"Everly","genre_ids":[53,28],"backdrop_path":"\/jHkMWfVMM4YoVMALdNqIEmDIVF8.jpg","adult":false,"overview":"After she betrays a powerful mob boss, a woman matches wits and weaponry with a legion of killers who are out to collect the bounty on the heads of her and her family.","release_date":"2015-01-23"},{"vote_count":146,"id":9764,"video":false,"vote_average":8.2,"title":"Dersu Uzala","popularity":7.335,"poster_path":"\/vC48JE8jGB5kxg6qUPLflvI4eHB.jpg","original_language":"ru","original_title":"Дерсу Узала","genre_ids":[28,12,18],"backdrop_path":"\/xpHIp4ZQjmfLslA2O4yfOG8O700.jpg","adult":false,"overview":"A military explorer meets and befriends a Goldi man in Russia’s unmapped forests. A deep and abiding bond evolves between the two men, one civilized in the usual sense, the other at home in the glacial Siberian woods.","release_date":"1975-08-02"},{"vote_count":121,"id":13980,"video":false,"vote_average":7.6,"title":"Sword of the Stranger","popularity":7.314,"poster_path":"\/kPYYN1Lt50QuEzNCgkrS8HMzsi.jpg","original_language":"ja","original_title":"ストレンヂア -無皇刃譚-","genre_ids":[28,16,36],"backdrop_path":"\/4cYY9DoTrKH5uFYoOqr921zkk1Y.jpg","adult":false,"overview":"Pursued by formidable Chinese assassins, young Kotaro and his dog run into No Name, a mysterious stranger who gets pulled into the chase. The unlikely companions form a bond over saving the dog from a poison attack, but chaos erupts when the assassins find Kotaro, and No Name must face his past before a horrible fate is met again.","release_date":"2007-09-29"},{"vote_count":302,"id":253626,"video":false,"vote_average":6,"title":"Good Kill","popularity":7.311,"poster_path":"\/5VDFKzpRSh8fjf1zJLcfTSpn1j1.jpg","original_language":"en","original_title":"Good Kill","genre_ids":[28,18,53],"backdrop_path":"\/nQB9cm3urmZWrRz3JcYIHKjq1Qj.jpg","adult":false,"overview":"In the shadowy world of drone warfare, combat unfolds like a video game–only with real lives at stake. After six tours of duty, Air Force pilot Tom Egan now fights the Taliban from an air-conditioned bunker in the Nevada desert. But as he yearns to get back in the cockpit of a real plane and becomes increasingly troubled by the collateral damage he causes each time he pushes a button, Egan’s nerves—and his relationship with his wife—begin to unravel.","release_date":"2015-04-09"},{"vote_count":151,"id":240483,"video":false,"vote_average":4.8,"title":"Robot Overlords","popularity":7.292,"poster_path":"\/9gza49pO2avFcqcpn9qsRUD012e.jpg","original_language":"en","original_title":"Robot Overlords","genre_ids":[12,878,28],"backdrop_path":"\/iRgWvuvHQx7tCGt9SEVqzCFbffL.jpg","adult":false,"overview":"Earth has been conquered by robots from another galaxy and the human survivors must stay in their homes, or risk incineration.","release_date":"2015-01-29"},{"vote_count":150,"id":215379,"video":false,"vote_average":5.8,"title":"Young Ones","popularity":7.25,"poster_path":"\/kCTYduARud4wGjv6sracsqsbDtq.jpg","original_language":"en","original_title":"Young Ones","genre_ids":[37,28,18,878],"backdrop_path":"\/6A3UPYZEnMUlUgC7XOMntvdT0ni.jpg","adult":false,"overview":"In a future where water is scarce, a farmer defends his land and hopes to rejuvenate his parched soil. However, his daughter's boyfriend schemes to steal the land for himself.","release_date":"2014-06-28"},{"vote_count":63,"id":342927,"video":false,"vote_average":3.6,"title":"3-Headed Shark Attack","popularity":7.233,"poster_path":"\/1zb7a8zejYOSbwoAXwC5CPosYRR.jpg","original_language":"en","original_title":"3-Headed Shark Attack","genre_ids":[878,28,27],"backdrop_path":"\/cltrOeOpSv1T1wx2o4jo1zGNRDO.jpg","adult":false,"overview":"The world’s greatest killing machine is three times as deadly when a mutated shark threatens a cruise ship. As the shark eats its way from one end of the ship to the next, the passengers fight the deadly predator using anything they can find.","release_date":"2015-10-09"},{"vote_count":110,"id":270938,"video":false,"vote_average":5.8,"title":"Falcon Rising","popularity":7.215,"poster_path":"\/9GOMpzlEaDZF5CCFSLEKclrPQRJ.jpg","original_language":"en","original_title":"Falcon Rising","genre_ids":[12,28],"backdrop_path":"\/c4blguSfQHVW7c1vuLQGFmxOOWS.jpg","adult":false,"overview":"Chapman is an ex-marine in Brazil's slums, battling the yakuza outfit who attacked his sister and left her for dead.","release_date":"2014-09-05"}]}