{"page":9,"total_results":1097,"total_pages":55,"results":[{"vote_count":86,"id":380111,"video":false,"vote_average":6.9,"title":"Flight Crew","popularity":6.594,"poster_path":"\/dPXWZziU4oHMt4NZ2ZFRTakcEKb.jpg","original_language":"ru","original_title":"Экипаж","genre_ids":[18,28],"backdrop_path":"\/3ThVGhHWVg0IwVFozDFWYL2rGyZ.jpg","adult":false,"overview":"A story about bravery, self-sacrifice and human dignity put on trial by the merciless power of nature. A young pilot is fired from military air force after disobeying an absurd order. He gets a job as a co-pilot with a civil airline. Being brutally honest and direct, he is not on best terms with his new colleagues. During a flight to Asia his crew receives a distress message from a volcanic island and makes a decision to attempt a rescue mission. Will it be a success? Will they survive the disaster? They have a single chance to find that out: by being a team and sticking up for one another.","release_date":"2016-04-21"},{"vote_count":54,"id":375108,"video":false,"vote_average":4.9,"title":"Mafia: Survival Game","popularity":6.558,"poster_path":"\/6RmwtI6fxPIJspNrtlCuiPjhH3k.jpg","original_language":"ru","original_title":"Мафия: Игра на выживание","genre_ids":[28,878],"backdrop_path":"\/seR3AM88RvHGIxA0DbSuf9Iosm.jpg","adult":false,"overview":"A twist on the classic game of Mafia. 12 competitors take part in a game of life and death where the innocent must take out the Mafia in order to win the cash prize. Those that are voted out must face their biggest fears in a computer simulation.","release_date":"2016-01-07"},{"vote_count":254,"id":346808,"video":false,"vote_average":5.8,"title":"Momentum","popularity":6.529,"poster_path":"\/y5pIEHodpMNDdf0nzoR90Boa2nN.jpg","original_language":"en","original_title":"Momentum","genre_ids":[28,53],"backdrop_path":"\/8hpX0p0aMdEFAMHuiAr7kgcAC0f.jpg","adult":false,"overview":"When Alex, an infiltration expert with a secret past, accidentally reveals her identity during what should have been a routine heist, she quickly finds herself mixed up in a government conspiracy and entangled in a deadly game of cat-and-mouse with a master assassin and his team of killers.  Armed with her own set of lethal skills, Alex looks to exact revenge for her murdered friends while uncovering the truth.","release_date":"2015-08-01"},{"vote_count":73,"id":407887,"video":false,"vote_average":5.8,"title":"Operation Chromite","popularity":6.485,"poster_path":"\/zAvlgJj0WgmYhv499bW6Xl8GObY.jpg","original_language":"ko","original_title":"인천상륙작전","genre_ids":[36,18,10752,28],"backdrop_path":"\/diSsXUQOb3DyIMMsacInuWWy2PE.jpg","adult":false,"overview":"A squad of soldiers fight in the Korean War's crucial Battle of Incheon.","release_date":"2016-07-27"},{"vote_count":78,"id":350499,"video":false,"vote_average":6.1,"title":"Pokémon the Movie: Hoopa and the Clash of Ages","popularity":6.479,"poster_path":"\/y5DFVX0QTZoVkPB3RFeudufW5fM.jpg","original_language":"ja","original_title":"ポケモン・ザ・ムービーXY 光輪の超魔神 フーパ","genre_ids":[12,16,28],"backdrop_path":"\/vuph8ylX8ZocVc9oVJdTCbVwI42.jpg","adult":false,"overview":"Ash, Pikachu, and their friends come to a desert city by the sea. Here they meet the Mythical Pokémon Hoopa, which has the ability to summon things—including people and Pokémon—through its magic rings. After a scary incident, they learn of a story about a brave hero who stopped the rampage of a terrifying Pokémon long ago. Now, the threat that has been bottled up for years is in danger of breaking loose again.","release_date":"2015-07-18"},{"vote_count":380,"id":262841,"video":false,"vote_average":5.9,"title":"Monster Trucks","popularity":6.465,"poster_path":"\/2Vr47xEcWIik5qnaNjSVCKx1REm.jpg","original_language":"en","original_title":"Monster Trucks","genre_ids":[28,35,878],"backdrop_path":"\/8Vpw2GIBVNsLNPkp3Uq7d4lQrae.jpg","adult":false,"overview":"Looking for any way to get away from the life and town he was born into, Tripp, a high school senior, builds a Monster Truck from bits and pieces of scrapped cars. After an accident at a nearby oil-drilling site displaces a strange and subterranean creature with a taste and a talent for speed, Tripp may have just found the key to getting out of town and a most unlikely friend.","release_date":"2016-12-26"},{"vote_count":790,"id":382322,"video":false,"vote_average":6.3,"title":"Batman: The Killing Joke","popularity":6.439,"poster_path":"\/zm0ODjtfJfJW0W269LqsQl5OhJ8.jpg","original_language":"en","original_title":"Batman: The Killing Joke","genre_ids":[28,16,80,18],"backdrop_path":"\/iYrE2zV1DfZ3l7Lh4frHzNwFncq.jpg","adult":false,"overview":"As Batman hunts for the escaped Joker, the Clown Prince of Crime attacks the Gordon family to prove a diabolical point mirroring his own fall into madness.","release_date":"2016-07-21"},{"vote_count":34,"id":396330,"video":false,"vote_average":7.2,"title":"LEGO DC Comics Super Heroes: Justice League - Gotham City Breakout","popularity":6.429,"poster_path":"\/rsONvWVId7reQKbAtPtoPukAUF2.jpg","original_language":"en","original_title":"LEGO DC Comics Super Heroes: Justice League - Gotham City Breakout","genre_ids":[10751,12,16,28],"backdrop_path":"\/uYGYJZhMuElZiQSdo94QNtcJ2AP.jpg","adult":false,"overview":"The caped crusader reluctantly agrees to let Batgirl and Nightwing take him on a long overdue vacation from crime-fighting, while Superman and the Justice League watch over Gotham City.","release_date":"2016-06-21"},{"vote_count":44,"id":370687,"video":false,"vote_average":6.1,"title":"Mythica: The Necromancer","popularity":6.394,"poster_path":"\/pxtb9zC59Cd6jG1qXXcQawcNnSV.jpg","original_language":"en","original_title":"Mythica: The Necromancer","genre_ids":[14,28,12],"backdrop_path":"\/u8LyPWk2MVe4Up2ZGhVWFG3NXvT.jpg","adult":false,"overview":"Mallister takes Thane prisoner and forces Marek and her team on a quest.  Marek tracks down the Necromancer for a final showdown for the Darkspore.","release_date":"2015-12-19"},{"vote_count":158,"id":221731,"video":false,"vote_average":7.6,"title":"Rurouni Kenshin: Kyoto Inferno","popularity":6.274,"poster_path":"\/4gZDhfUrX4cyPJRoK6YgcpxBoZi.jpg","original_language":"ja","original_title":"るろうに剣心 京都大火編","genre_ids":[28,12,18],"backdrop_path":"\/4Rjl7vhjgzkAYrisGH5DQtGMrxh.jpg","adult":false,"overview":"Kenshin has settled into his new life with Kaoru and his other friends when he is approached with a request from the Meiji government. Makoto Shishio, a former assassin like Kenshin, was betrayed, set on fire and left for dead. He survived, and is now in Kyoto, plotting with his gathered warriors to overthrow the new government. Against Kaoru's wishes, Kenshin reluctantly agrees to go to Kyoto and help keep his country from falling back into civil war.","release_date":"2014-08-01"},{"vote_count":130,"id":219572,"video":false,"vote_average":5.9,"title":"Police Story 2013","popularity":6.259,"poster_path":"\/yxYlAqBA3EjQwHFtGfb03ztfJmC.jpg","original_language":"zh","original_title":"警察故事2013","genre_ids":[28,80,18,53],"backdrop_path":"\/qXsy8GwqI3yDpxMPdBI2YCwjljn.jpg","adult":false,"overview":"A man looking for the release of a long-time prisoner takes a police officer, his daughter, and a group of strangers hostage.","release_date":"2013-12-24"},{"vote_count":158,"id":390497,"video":false,"vote_average":7.1,"title":"Tunnel","popularity":6.248,"poster_path":"\/rLTYM8HeUo4YhgAlU888XEU8LMS.jpg","original_language":"ko","original_title":"터널","genre_ids":[18,53,28],"backdrop_path":"\/s3j3ZiKX1z5JekA2CDhxD5FXh1v.jpg","adult":false,"overview":"A man is on his way home when the poorly constructed tunnel he is driving through collapses, leaving him trapped.","release_date":"2016-08-10"},{"vote_count":280,"id":263341,"video":false,"vote_average":5.9,"title":"Crouching Tiger, Hidden Dragon: Sword of Destiny","popularity":6.234,"poster_path":"\/ofUfaj5e6qZtDqTPS5GkEV0H2zH.jpg","original_language":"en","original_title":"Crouching Tiger, Hidden Dragon: Sword of Destiny","genre_ids":[28,12,18],"backdrop_path":"\/4m0UWBWNytXxNcmvTS7FKL2gSoI.jpg","adult":false,"overview":"A story of lost love, young love, a legendary sword and one last opportunity at redemption.","release_date":"2016-02-18"},{"vote_count":100,"id":360249,"video":false,"vote_average":5.5,"title":"The Last King","popularity":6.213,"poster_path":"\/6ReVrfcWLYBN8xbI7vuPcljWT5G.jpg","original_language":"no","original_title":"Birkebeinerne","genre_ids":[28,12,18,36],"backdrop_path":"\/206MuycS4P4EvuoemWU20nvkWS.jpg","adult":false,"overview":"Norway, 1204. A civil war between the birkebeiners —the king's men— and the baglers —supporters of the Norwegian aristocracy and the Church— ravages the country. Two men must protect a baby, the illegitimate son of King Håkon, who will be the future king and peacemaker, from those who want to kill him.","release_date":"2016-02-12"},{"vote_count":52,"id":377447,"video":false,"vote_average":6.1,"title":"Railroad Tigers","popularity":6.167,"poster_path":"\/1aSkP9geZCbqIoxjF7Jy9dT8UfY.jpg","original_language":"zh","original_title":"鐵道飛虎","genre_ids":[28,35,10752],"backdrop_path":"\/jFuMQPB7URxwJwPuWientXmdbz3.jpg","adult":false,"overview":"A railroad worker in China in 1941 leads a team of freedom fighters against the Japanese in order to get food for the poor.","release_date":"2016-12-23"},{"vote_count":135,"id":279096,"video":false,"vote_average":5.6,"title":"Lazer Team","popularity":6.144,"poster_path":"\/bqTVXHVdR9FrSWAn58WOC73uLmx.jpg","original_language":"en","original_title":"Lazer Team","genre_ids":[28,35,878],"backdrop_path":"\/g9jWkDMl6EdwSyjQRTRgg3O1XLW.jpg","adult":false,"overview":"In the late 1970's, the SETI project received a one time signal from outer space. It looked exactly as theorists thought a communication from an alien civilization would -- unfortunately it has never been decoded. Or so we were told. Unbeknownst to the general public the signal was translated and told us two things:  1) We are not alone.  2) The galaxy is a dangerous place.","release_date":"2016-01-27"},{"vote_count":90,"id":331576,"video":false,"vote_average":6.6,"title":"SPL 2: A Time for Consequences","popularity":6.099,"poster_path":"\/mzOU5fKY0vx5YTSDyOFvG6YmdSG.jpg","original_language":"cn","original_title":"Sha puo lang 2","genre_ids":[28,80,53],"backdrop_path":"\/9AXex0320Pmcj7Mc2RTzg31TI8G.jpg","adult":false,"overview":"A Hong Kong cop named Kit busts a major gangster only to find his cover blown and his main witness gone. The gangster, in retaliation, has him kidnapped and put in a Thai jail with a false criminal identity. A lowly prison guard Chai with extraordinary fighting skills guards kit and prevents his escape from prison. The prison guard’s daughter suffers from a rare form of leukemia and Kit is the only donor who can save her. The prison guard discovers Kit’s real identity and helps him to escape in return for his agreeing to save his daughter. Together, Kit and Chai must face the gangster and his minions and take them down.","release_date":"2015-06-18"},{"vote_count":74,"id":381693,"video":false,"vote_average":6.9,"title":"Kung Fu Panda: Secrets of the Scroll","popularity":6.077,"poster_path":"\/8UvKl3SZhE6McLK4Yv5w7fRIg9Y.jpg","original_language":"en","original_title":"Kung Fu Panda: Secrets of the Scroll","genre_ids":[12,28,16,10751,35],"backdrop_path":"\/hQNmguvYsu3VJmQWs10rYTnSMAb.jpg","adult":false,"overview":"As Po looks for his lost action figures, the story of how the panda inadvertently helped create the Furious Five is told.","release_date":"2016-01-05"},{"vote_count":88,"id":36728,"video":false,"vote_average":7.1,"title":"Naruto Shippuden the Movie: Inheritors of the Will of Fire","popularity":6.064,"poster_path":"\/428uh4yVg4N7vMYVMbHkwYHyRRF.jpg","original_language":"ja","original_title":"劇場版 NARUTO -ナルト- 疾風伝 火の意志を継ぐ者","genre_ids":[28,12,35,18,14,16],"backdrop_path":"\/l8ivXkgpI8tQUwvPuSojo2ySrRI.jpg","adult":false,"overview":"Ninjas with bloodline limits begin disappearing in all the countries and blame points toward the fire nation. By Tsunade's order, Kakashi is sacrificed to prevent an all out war. After inheriting charms left by Kakashi, Naruto fights through friends and foes to prevent his death while changing the minds of those who've inherited the will of fire.","release_date":"2009-08-01"},{"vote_count":378,"id":339396,"video":false,"vote_average":5.7,"title":"True Memoirs of an International Assassin","popularity":6.038,"poster_path":"\/sC2Vg8QfSfZax3Fpw4yqKB2KRV1.jpg","original_language":"en","original_title":"True Memoirs of an International Assassin","genre_ids":[35,28],"backdrop_path":"\/3nq3Kv61aSZtabDg1WFCA6M6NSN.jpg","adult":false,"overview":"After a publisher changes a writer's debut novel about a deadly assassin from fiction to nonfiction, the author finds himself thrust into the world of his lead character, and must take on the role of his character for his own survival.","release_date":"2016-11-11"}]}