{"page":8,"total_results":1097,"total_pages":55,"results":[{"vote_count":29,"id":388191,"video":false,"vote_average":6.2,"title":"Mythica: The Iron Crown","popularity":7.187,"poster_path":"\/otSfU9MrjYr1bJRhoAO61Pq1csH.jpg","original_language":"en","original_title":"Mythica: The Iron Crown","genre_ids":[28,12,14],"backdrop_path":"\/nL5ksz7dZxIwUBs03c1f6AOjHfX.jpg","adult":false,"overview":"When a team of unlikely heroes hijacks a steam-powered battle wagon, a daring young wizard (Marek) steals the final piece of the all-powerful Darkspore and embarks on a desperate quest to deliver the cursed artifact to the gods for safe keeping; but when they are caught in a death race between a ruthless team of elite mercenaries and a trinity of demons, Marek must learn to believe in herself before her friends are killed and the Darkspore is lost, to stop the evil necromancer (Szorlok) from uniting the Darkspore and flooding the living world with his legions of undead.","release_date":"2016-05-14"},{"vote_count":117,"id":413658,"video":false,"vote_average":5.8,"title":"Enter the Warriors Gate","popularity":7.164,"poster_path":"\/ocwjA3k921qzDDfXE7jDTEjlwWn.jpg","original_language":"zh","original_title":"勇士之门","genre_ids":[28,12],"backdrop_path":"\/5Jgq2b75vQDJyjlOldatEJPYWLF.jpg","adult":false,"overview":"Epic fantasy-adventure meets martial arts action in this thrilling film written by Luc Besson &amp; Robert Mark Kamen. After a mysterious chest opens a gateway through time, teen gamer Jack (Uriah Shelton) is transported to an ancient empire terrorized by a cruel barbarian king (former WWE superstar Dave Bautista). Jack will need all of his gaming skills as he battles to defeat the barbarian, protect a beautiful princess, and somehow find his way back home.","release_date":"2016-11-18"},{"vote_count":725,"id":389053,"video":false,"vote_average":5.7,"title":"The Do-Over","popularity":7.143,"poster_path":"\/yHz2wt8uSHkWPMwjbJOQH3W9wmF.jpg","original_language":"en","original_title":"The Do-Over","genre_ids":[28,12,35],"backdrop_path":"\/j2aTHn6kzFJyZALlLUWw9V0JXSh.jpg","adult":false,"overview":"The life of a bank manager is turned upside down when a friend from his past manipulates him into faking his own death and taking off on an adventure.","release_date":"2016-05-27"},{"vote_count":181,"id":396263,"video":false,"vote_average":7,"title":"Gantz:O","popularity":7.053,"poster_path":"\/fF33nRbgvxNgTTPUuNqNsRPYmxZ.jpg","original_language":"ja","original_title":"GANTZ:O","genre_ids":[878,28,16],"backdrop_path":"\/auRjbGCUWUBFtFcjx6YHe2wg7W5.jpg","adult":false,"overview":"Somewhere in Tokyo, there is a room. In that room is a black sphere. Periodically, people who should otherwise have died are transferred to the room. There, the sphere gives them special suits and weapons, and sends them out on a mission to kill aliens here on Earth. While these missions take place, the rest of the world is largely oblivious to them. These missions are lethal - few participants survive them. The sphere calls the shots, and it's not the slightest bit nice. Its name... Gantz.","release_date":"2016-10-14"},{"vote_count":77,"id":262982,"video":false,"vote_average":6.2,"title":"The Hollow Point","popularity":7.036,"poster_path":"\/6neGGPCy42iWn7av22IXYVvGOWe.jpg","original_language":"en","original_title":"The Hollow Point","genre_ids":[28,18,53],"backdrop_path":"\/fH0KkK3dOyaBUlzDp74w5hSFNmN.jpg","adult":false,"overview":"A retired lawman works with a new sheriff when a botched Mexican drug deal and a vicious hit man threaten their border town.","release_date":"2016-12-16"},{"vote_count":764,"id":324670,"video":false,"vote_average":6.3,"title":"Spectral","popularity":6.983,"poster_path":"\/oXV2ayQYUQfHwpuMdWnZF0Geng5.jpg","original_language":"en","original_title":"Spectral","genre_ids":[53,28,878],"backdrop_path":"\/2sIGAiY1y5cEuYMrlB0PRhhw9Z5.jpg","adult":false,"overview":"A special-ops team is dispatched to fight supernatural being that have taken over a European city.","release_date":"2016-12-01"},{"vote_count":384,"id":197950,"video":false,"vote_average":7.1,"title":"The Connection","popularity":6.912,"poster_path":"\/5Me3v2swCnGEfzucZ6MXrwGV80V.jpg","original_language":"fr","original_title":"La French","genre_ids":[28,80,53],"backdrop_path":"\/c5JKUU69HtWseqoPgYbBKVpQrKm.jpg","adult":false,"overview":"Newly transferred to the bustling port city of Marseille to assist with a crackdown on organized crime, energetic young magistrate Pierre Michel is given a rapid-fire tutorial on the ins and outs of an out-of-control drug trade. Pierre's wildly ambitious mission is to take on the French Connection, a highly organized operation that controls the city's underground heroin economy and is overseen by the notorious —and reputedly untouchable— Gaetan Zampa. Fearless, determined and willing to go the distance, Pierre plunges into an underworld world of insane danger and ruthless criminals.","release_date":"2014-12-03"},{"vote_count":79,"id":15983,"video":false,"vote_average":5.2,"title":"Invasion U.S.A.","popularity":6.888,"poster_path":"\/kOfao6cNUlzFOToLy3DmMtWwGPp.jpg","original_language":"en","original_title":"Invasion U.S.A.","genre_ids":[28,53],"backdrop_path":"\/aCBnoRWndAJeNGpLeAzU83ce5DO.jpg","adult":false,"overview":"A one-man army comes to the rescue of the United States when a spy attempts an invasion.","release_date":"1985-09-27"},{"vote_count":65,"id":347096,"video":false,"vote_average":5.8,"title":"Mythica: The Darkspore","popularity":6.887,"poster_path":"\/f6gVR4Cm6gfiQa6DQquJ2NE5uwX.jpg","original_language":"en","original_title":"Mythica: The Darkspore","genre_ids":[28,12,14],"backdrop_path":"\/3KqlM9rJqZPB5XujLuUxDp0e0CY.jpg","adult":false,"overview":"When Teela’s sister is murdered and a powerful relic stolen, Marek and her friends face a sinister new enemy – Kishkumen, a foreign mystic bent on reclaiming the Darkspore for his master Szorlok. Armed with twin maps, Marek and her team race Kishkumen and his horde through creature-infested lands, to a long abandoned underground city – all the while pursued by bounty hunters intent on returning Marek to slavery.","release_date":"2015-06-24"},{"vote_count":76,"id":377897,"video":false,"vote_average":6.1,"title":"Barbie: Spy Squad","popularity":6.877,"poster_path":"\/rP33Urpto9Ftea7MtNPKgxCGJtu.jpg","original_language":"en","original_title":"Barbie: Spy Squad","genre_ids":[28,16,10751],"backdrop_path":"\/c7T4tj3qarLNjNmRDfBPzEFSHG0.jpg","adult":false,"overview":"Barbie and her best friends Teresa and Renee transform from hard-working gymnasts to undercover secret agents. When their amazing gymnastics skills catch the eye of a top-secret spy agency, the girls are soon following clues to a gem-stealing cat burglar, using high-tech gadgets, glam disguises and cute robo-pets to save the day.","release_date":"2016-01-15"},{"vote_count":409,"id":174751,"video":false,"vote_average":5.5,"title":"Jane Got a Gun","popularity":6.869,"poster_path":"\/nkIy7P21LL6kWgBI4YfGrHAkans.jpg","original_language":"en","original_title":"Jane Got a Gun","genre_ids":[28,18,37],"backdrop_path":"\/i2KqVXm5tury4fAGgzDryiIjHw6.jpg","adult":false,"overview":"After her outlaw husband returns home shot with eight bullets and barely alive, Jane reluctantly reaches out to an ex-lover who she hasn't seen in over ten years to help her defend her farm when the time comes that her husband's gang eventually tracks him down to finish the job.","release_date":"2015-12-31"},{"vote_count":252,"id":295830,"video":false,"vote_average":5.2,"title":"Attack on Titan","popularity":6.805,"poster_path":"\/eBjACOAYScNXdBDGder7yC7wpBg.jpg","original_language":"ja","original_title":"進撃の巨人 ATTACK ON TITAN","genre_ids":[27,14,18,28,878],"backdrop_path":"\/dmL16DKHIh8bLle3XAiRSErQNxM.jpg","adult":false,"overview":"100 years ago, titans suddenly appeared on Earth. Soon, human civilization veered on collapse due to the titans. Humans then built a giant wall to defend themselves. Within the giant walls, humans lived in peace, but, 100 years later, the giant wall is broken.","release_date":"2015-08-12"},{"vote_count":29,"id":401689,"video":false,"vote_average":5.9,"title":"Mythica: The Godslayer","popularity":6.796,"poster_path":"\/a2RjGmJPfk3Wcb8wMoLe5dkxeMj.jpg","original_language":"en","original_title":"Mythica: The Godslayer","genre_ids":[12,14,28],"backdrop_path":"\/4nvTmKUpusDki5hSoPyBjys0fQq.jpg","adult":false,"overview":"As the Lich King's zombie legions ravage the world, a cursed young sorceress (Marek) embarks on a quest to obtain a weapon from the gods, with her friend Dagen, a self-serving half-elf rogue. But when she joins her sworn enemy in a desperate attempt to save the world, she must recover the good in herself before her friends are all dead, and defeat the Lich King before the gods are destroyed and the world forever enslaved.","release_date":"2016-12-17"},{"vote_count":605,"id":342521,"video":false,"vote_average":5.9,"title":"Keanu","popularity":6.763,"poster_path":"\/udU6t5xPNDLlRTxhjXqgWFFYlvO.jpg","original_language":"en","original_title":"Keanu","genre_ids":[28,35],"backdrop_path":"\/9AjSRV8RMhHJS3DsnfJcY6CM9xU.jpg","adult":false,"overview":"Friends hatch a plot to retrieve a stolen cat by posing as drug dealers for a street gang.","release_date":"2016-04-21"},{"vote_count":248,"id":317442,"video":false,"vote_average":7.4,"title":"The Last: Naruto the Movie","popularity":6.737,"poster_path":"\/bAQ8O5Uw6FedtlCbJTutenzPVKd.jpg","original_language":"ja","original_title":"The Last: Naruto the Movie","genre_ids":[28,10749,16],"backdrop_path":"\/9KqhygG22XaAkDoZavDpc5vNNry.jpg","adult":false,"overview":"Two years after the events of the Fourth Great Ninja War, the moon that Hagoromo Otsutsuki created long ago to seal away the Gedo Statue begins to descend towards the world, threatening to become a meteor that would destroy everything on impact. Amidst this crisis, a direct descendant of Kaguya Otsutsuki named Toneri Otsutsuki attempts to kidnap Hinata Hyuga but ends up abducting her younger sister Hanabi. Naruto and his allies now mount a rescue mission before finding themselves embroiled in a final battle to decide the fate of everything.","release_date":"2014-12-06"},{"vote_count":53,"id":26173,"video":false,"vote_average":7,"title":"Mr. Majestyk","popularity":6.735,"poster_path":"\/y6vy91TC7hRQ0vilLradF8oVY2x.jpg","original_language":"en","original_title":"Mr. Majestyk","genre_ids":[28,80,53],"backdrop_path":"\/9B6iq3goyTMNlTLu4tqWUVJscx9.jpg","adult":false,"overview":"Watermelon farmer Vince Majestyk (Charles Bronson) goes after the Mob, when they try to strong arm him to use their melon picking crew.","release_date":"1974-07-17"},{"vote_count":35,"id":362046,"video":false,"vote_average":4.3,"title":"4Got10","popularity":6.706,"poster_path":"\/b2lhUuG95CZbZ36CX6il0jCCobA.jpg","original_language":"en","original_title":"4Got10","genre_ids":[37,28,53],"backdrop_path":"\/nUz2RKS3C9B97jfnhybAujXwkYz.jpg","adult":false,"overview":"Brian Barnes (Johnny Messner) wakes up in the desert wounded and with no memory and no idea why he's surrounded by eight bodies, a van with four million in cash and a van full of cocaine. Brian is pursued by not only notorious drug lord Danny Perez (Danny Trejo) who desperately want his money back, and DEA Agent Rooker (Dolph Lundgren), but also a by the corrupt Sheriff Olson (Michael Pare) who will stop at nothing to get his hand on the new found fortune. On the run, Brian discovers the more he remembers the less he wants to know about who he really is.","release_date":"2015-09-11"},{"vote_count":190,"id":333663,"video":false,"vote_average":5.7,"title":"War on Everyone","popularity":6.704,"poster_path":"\/wBx9dHmSIdtHLdrC7inEsu1sErD.jpg","original_language":"en","original_title":"War on Everyone","genre_ids":[28,35,9648],"backdrop_path":"\/wsko1RF3SozpVjA3VKFO18qpzci.jpg","adult":false,"overview":"Two corrupt cops in New Mexico set out to blackmail and frame every criminal unfortunate enough to cross their path. Things take a sinister turn, however, when they try to intimidate someone who is more dangerous than they are. Or is he?","release_date":"2016-10-07"},{"vote_count":42,"id":381902,"video":false,"vote_average":5.8,"title":"The Monkey King 2","popularity":6.656,"poster_path":"\/kcV6J5gD4znVLXMQ04CVLdkA2Gb.jpg","original_language":"zh","original_title":"西游记之孙悟空三打白骨精","genre_ids":[28,12,14],"backdrop_path":"\/ep95Ixc8H0Wrw7PTl94QG4diK6F.jpg","adult":false,"overview":"Taking place 500 years after the Havoc in Heaven, the Tang Priest is appointed by Buddha to go to the West to fetch the sacred scriptures, only to accidentally free the Monkey King. With Lady White (Gong Li) aiming to break up the team assembled to defeat her, the Monkey King must fight in order to save his world!","release_date":"2016-01-22"},{"vote_count":83,"id":404584,"video":false,"vote_average":5,"title":"From a House on Willow Street","popularity":6.634,"poster_path":"\/d3aHtMxYUmGAyYrTNk52BqXeOQl.jpg","original_language":"en","original_title":"From a House on Willow Street","genre_ids":[28,27],"backdrop_path":"\/8SXRtvIJSvoJQpBjfrYLU3HhliQ.jpg","adult":false,"overview":"After a young woman is kidnapped, her captors soon come to realize that in fact they may be the ones in danger and this young woman has a dark secret inside her.","release_date":"2017-03-24"}]}