{"page":3,"total_results":1097,"total_pages":55,"results":[{"vote_count":2671,"id":140300,"video":false,"vote_average":6.6,"title":"Kung Fu Panda 3","popularity":14.987,"poster_path":"\/MZFPacfKzgisnPoJIPEFZUXBBT.jpg","original_language":"en","original_title":"Kung Fu Panda 3","genre_ids":[28,12,16,35,10751],"backdrop_path":"\/eHWmEUP4fa7h1Fe7TXfTL7ncDl8.jpg","adult":false,"overview":"Continuing his \"legendary adventures of awesomeness\", Po must face two hugely epic, but different threats: one supernatural and the other a little closer to his home.","release_date":"2016-01-23"},{"vote_count":1648,"id":249070,"video":false,"vote_average":5.6,"title":"Hitman: Agent 47","popularity":14.911,"poster_path":"\/4VmZeT8YkuMI6BrA623mHZDISlN.jpg","original_language":"en","original_title":"Hitman: Agent 47","genre_ids":[28,80,53],"backdrop_path":"\/axIHpEwsLjRASpZVVFiBNWDe1qt.jpg","adult":false,"overview":"An assassin teams up with a woman to help her find her father and uncover the mysteries of her ancestry.","release_date":"2015-08-20"},{"vote_count":3092,"id":49529,"video":false,"vote_average":6.1,"title":"John Carter","popularity":14.777,"poster_path":"\/4QDBNt9PmxqUH4Ab2R5xKWqzXiQ.jpg","original_language":"en","original_title":"John Carter","genre_ids":[28,12,878],"backdrop_path":"\/2eDepJWMMBHmZ7pt9MSqzGQeoDc.jpg","adult":false,"overview":"John Carter is a war-weary, former military captain who's inexplicably transported to the mysterious and exotic planet of Barsoom (Mars) and reluctantly becomes embroiled in an epic conflict. It's a world on the brink of collapse, and Carter rediscovers his humanity when he realizes the survival of Barsoom and its people rests in his hands.","release_date":"2012-03-07"},{"vote_count":300,"id":307663,"video":false,"vote_average":4.2,"title":"Vice","popularity":14.707,"poster_path":"\/gwiY5RJFYSjsoSwoeeo6AbGYjpb.jpg","original_language":"en","original_title":"Vice","genre_ids":[53,878,28,12],"backdrop_path":"\/cTPS3ib89O4HSOtZDa3YXvaas5F.jpg","adult":false,"overview":"Julian Michaels has designed the ultimate resort: VICE, where anything goes and the customers can play out their wildest fantasies with artificial inhabitants who look, think and feel like humans. When an artificial becomes self-aware and escapes, she finds herself caught in the crossfire between Julian's mercenaries and a cop who is hell-bent on shutting down Vice, and stopping the violence once and for all.","release_date":"2015-01-16"},{"vote_count":3686,"id":47933,"video":false,"vote_average":5.1,"title":"Independence Day: Resurgence","popularity":14.58,"poster_path":"\/5CHJs479xWnm3zMDOl94VkKS7MZ.jpg","original_language":"en","original_title":"Independence Day: Resurgence","genre_ids":[28,12,878],"backdrop_path":"\/mou66QcacavDahfyuaqKfaCLdoI.jpg","adult":false,"overview":"We always knew they were coming back. Using recovered alien technology, the nations of Earth have collaborated on an immense defense program to protect the planet. But nothing can prepare us for the aliens’ advanced and unprecedented force. Only the ingenuity of a few brave men and women can bring our world back from the brink of extinction.","release_date":"2016-06-22"},{"vote_count":2735,"id":290595,"video":false,"vote_average":6.2,"title":"The Huntsman: Winter's War","popularity":14.416,"poster_path":"\/b77l5vmp6PYsc98LE6Uf1mXtmHh.jpg","original_language":"en","original_title":"The Huntsman: Winter's War","genre_ids":[28,12,18],"backdrop_path":"\/nQ0UvXdxoMZguLuPj0sdV0U36KR.jpg","adult":false,"overview":"As two evil sisters prepare to conquer the land, two renegades—Eric the Huntsman, who aided Snow White in defeating Ravenna in Snowwhite and the Huntsman, and his forbidden lover, Sara—set out to stop them.","release_date":"2016-04-06"},{"vote_count":3808,"id":258489,"video":false,"vote_average":5.7,"title":"The Legend of Tarzan","popularity":14.363,"poster_path":"\/6FxOPJ9Ysilpq0IgkrMJ7PubFhq.jpg","original_language":"en","original_title":"The Legend of Tarzan","genre_ids":[28,12],"backdrop_path":"\/d9H2nXfKslf6B1cm7UtPBKhtUgA.jpg","adult":false,"overview":"Tarzan, having acclimated to life in London, is called back to his former home in the jungle to investigate the activities at a mining encampment.","release_date":"2016-06-29"},{"vote_count":1075,"id":8009,"video":false,"vote_average":6.9,"title":"Highlander","popularity":14.067,"poster_path":"\/6l4t1vWAFMuAiOpDT0mDWlrr5Mp.jpg","original_language":"en","original_title":"Highlander","genre_ids":[12,28,14],"backdrop_path":"\/q6jg0cSixdEGUsyzkuh2qqL6iVq.jpg","adult":false,"overview":"He fought his first battle on the Scottish Highlands in 1536. He will fight his greatest battle on the streets of New York City in 1986. His name is Connor MacLeod. He is immortal.","release_date":"1986-03-07"},{"vote_count":8193,"id":87827,"video":false,"vote_average":7.3,"title":"Life of Pi","popularity":14.017,"poster_path":"\/sLYdcz7easaS7CmJGwQcVVYZqiF.jpg","original_language":"en","original_title":"Life of Pi","genre_ids":[12,18,28],"backdrop_path":"\/5JrLFqszE2IaPai86yFm5kU3OPO.jpg","adult":false,"overview":"The story of an Indian boy named Pi, a zookeeper's son who finds himself in the company of a hyena, zebra, orangutan, and a Bengal tiger after a shipwreck sets them adrift in the Pacific Ocean.","release_date":"2012-11-20"},{"vote_count":1208,"id":192141,"video":false,"vote_average":6.8,"title":"No Escape","popularity":13.936,"poster_path":"\/jIXZEvL4dmgkjyhD5JUDeOaASKB.jpg","original_language":"en","original_title":"No Escape","genre_ids":[28,53],"backdrop_path":"\/l97RWqhhZnrCjb2xQ5ZCGveQkq1.jpg","adult":false,"overview":"In their new overseas home, an American family soon finds themselves caught in the middle of a coup, and they frantically look for a safe escape in an environment where foreigners are being immediately executed.","release_date":"2015-08-26"},{"vote_count":2489,"id":369885,"video":false,"vote_average":6.7,"title":"Allied","popularity":13.886,"poster_path":"\/nzXzLFTnd0Zb3ExfhOxlQgizgSu.jpg","original_language":"en","original_title":"Allied","genre_ids":[28,18,10752,10749,53],"backdrop_path":"\/tC0tVH5KQhCwMlddnyA3iWOSuBA.jpg","adult":false,"overview":"In 1942, an intelligence officer in North Africa encounters a female French Resistance fighter on a deadly mission behind enemy lines. When they reunite in London, their relationship is tested by the pressures of war.","release_date":"2016-11-17"},{"vote_count":2212,"id":396535,"video":false,"vote_average":7.7,"title":"Train to Busan","popularity":13.68,"poster_path":"\/qWOkfCgioLEf3Km9OWva93RYWAc.jpg","original_language":"ko","original_title":"부산행","genre_ids":[28,27,53],"backdrop_path":"\/cyCv00egs7ZNAyNpI8LlRaIi6K8.jpg","adult":false,"overview":"Martial law is declared when a mysterious viral outbreak pushes Korea into a state of emergency. Those on an express train to Busan, a city that has successfully fended off the viral outbreak, must fight for their own survival…","release_date":"2016-07-20"},{"vote_count":899,"id":841,"video":false,"vote_average":6.4,"title":"Dune","popularity":13.621,"poster_path":"\/ngUaHgSZGkKy1Izwjk7qwZLOC5A.jpg","original_language":"en","original_title":"Dune","genre_ids":[28,878,12],"backdrop_path":"\/o5l7nvYLfisSndoOIbMxoUHfdNd.jpg","adult":false,"overview":"In the year 10,191, the world is at war for control of the desert planet Dune – the only place where the time-travel substance 'Spice' can be found. But when one leader gives up control, it's only so he can stage a coup with some unsavory characters.","release_date":"1984-12-14"},{"vote_count":1695,"id":308531,"video":false,"vote_average":5.9,"title":"Teenage Mutant Ninja Turtles: Out of the Shadows","popularity":13.532,"poster_path":"\/u3M0HzkQR1pYNaadJWuxe84B34r.jpg","original_language":"en","original_title":"Teenage Mutant Ninja Turtles: Out of the Shadows","genre_ids":[28,12,35,10751,878],"backdrop_path":"\/999RuhZvog8ocyvcccVV9yGmMjL.jpg","adult":false,"overview":"After supervillain Shredder escapes custody, he joins forces with mad scientist Baxter Stockman and two dimwitted henchmen, Bebop and Rocksteady, to unleash a diabolical plan to take over the world. As the Turtles prepare to take on Shredder and his new crew, they find themselves facing an even greater evil with similar intentions: the notorious Krang.","release_date":"2016-06-01"},{"vote_count":309,"id":270774,"video":false,"vote_average":5.6,"title":"Skiptrace","popularity":13.491,"poster_path":"\/sDTGLqXanwudLeOXKqfNgkxjSdU.jpg","original_language":"en","original_title":"Skiptrace","genre_ids":[28,35,53,9648],"backdrop_path":"\/8xkEjrt00mqPCDu2QRQz0srH3NF.jpg","adult":false,"overview":"A detective from Hong Kong teams up with an American gambler to battle against a notorious Chinese criminal.","release_date":"2016-07-21"},{"vote_count":4122,"id":2503,"video":false,"vote_average":7.3,"title":"The Bourne Ultimatum","popularity":13.461,"poster_path":"\/fHho6JYYY0nRcETWSoeI19iZsNF.jpg","original_language":"en","original_title":"The Bourne Ultimatum","genre_ids":[28,18,9648,53],"backdrop_path":"\/6WpDOqkZFmhNJ0rwuLJiZVKlZi1.jpg","adult":false,"overview":"Bourne is brought out of hiding once again by reporter Simon Ross who is trying to unveil Operation Blackbriar, an upgrade to Project Treadstone, in a series of newspaper columns. Information from the reporter stirs a new set of memories, and Bourne must finally uncover his dark past while dodging The Company's best efforts to eradicate him.","release_date":"2007-08-03"},{"vote_count":2637,"id":343611,"video":false,"vote_average":5.5,"title":"Jack Reacher: Never Go Back","popularity":13.32,"poster_path":"\/IfB9hy4JH1eH6HEfIgIGORXi5h.jpg","original_language":"en","original_title":"Jack Reacher: Never Go Back","genre_ids":[28,12,80],"backdrop_path":"\/nDS8rddEK74HfAwCC5CoT6Cwzlt.jpg","adult":false,"overview":"Jack Reacher must uncover the truth behind a major government conspiracy in order to clear his name. On the run as a fugitive from the law, Reacher uncovers a potential secret from his past that could change his life forever.","release_date":"2016-10-19"},{"vote_count":2022,"id":274854,"video":false,"vote_average":5.8,"title":"The Last Witch Hunter","popularity":12.65,"poster_path":"\/ke0ktdLpTyDKsMuJTyMXFVK4xej.jpg","original_language":"en","original_title":"The Last Witch Hunter","genre_ids":[14,28,12,878],"backdrop_path":"\/o6saqjLAgKpczr0yhJkEI9fNwN7.jpg","adult":false,"overview":"The modern world holds many secrets, but by far the most astounding is that witches still live among us; vicious supernatural creatures intent on unleashing the Black Death upon the world and putting an end to the human race once and for all. Armies of witch hunters have battled this unnatural enemy for centuries, including Kaulder, a valiant warrior who many years ago slayed the all-powerful Witch Queen, decimating her followers in the process. In the moments right before her death, the Queen cursed Kaulder with immortality, forever separating him from his beloved wife and daughter. Today, Kaulder is the last living hunter who has spent his immortal life tracking down rogue witches, all the while yearning for his long-lost family.","release_date":"2015-10-21"},{"vote_count":4595,"id":121856,"video":false,"vote_average":5.4,"title":"Assassin's Creed","popularity":12.596,"poster_path":"\/tIKFBxBZhSXpIITiiB5Ws8VGXjt.jpg","original_language":"en","original_title":"Assassin's Creed","genre_ids":[28,12,878],"backdrop_path":"\/cSKaBHOWA0CntJWfSRklqx0rm0t.jpg","adult":false,"overview":"Through unlocked genetic memories that allow him to relive the adventures of his ancestor in 15th century Spain, Callum Lynch discovers he's a descendant of the secret 'Assassins' society. After gaining incredible knowledge and skills, he is now poised to take on the oppressive Knights Templar in the present day.","release_date":"2016-12-21"},{"vote_count":4047,"id":2502,"video":false,"vote_average":7.3,"title":"The Bourne Supremacy","popularity":12.579,"poster_path":"\/jXwZgmqOtsqsXuB9oGhocOAegCM.jpg","original_language":"en","original_title":"The Bourne Supremacy","genre_ids":[28,18,53],"backdrop_path":"\/e1svWjxTXMOmdgkVLSPHSfWv90R.jpg","adult":false,"overview":"When a CIA operation to purchase classified Russian documents is blown by a rival agent, who then shows up in the sleepy seaside village where Bourne and Marie have been living. The pair run for their lives and Bourne, who promised retaliation should anyone from his former life attempt contact, is forced to once again take up his life as a trained assassin to survive.","release_date":"2004-07-23"}]}