{"page":6,"total_results":1097,"total_pages":55,"results":[{"vote_count":199,"id":291356,"video":false,"vote_average":5.8,"title":"In a Valley of Violence","popularity":8.626,"poster_path":"\/vt6PRYO81BUKxPFhmzg0CzOq8oo.jpg","original_language":"en","original_title":"In a Valley of Violence","genre_ids":[80,53,37,28],"backdrop_path":"\/bnw8E9Jrj0mvmktXka9L1Kvq3ji.jpg","adult":false,"overview":"The story of a drifter named Paul who arrives in a small town seeking revenge on the thugs who murdered his friend. Sisters Mary Anne and Ellen, who run the town's hotel, help Paul in his quest for vengeance.","release_date":"2016-10-21"},{"vote_count":148,"id":384737,"video":false,"vote_average":5.1,"title":"Precious Cargo","popularity":8.545,"poster_path":"\/qXNqkDRCz5sBF5laqj5fw7HYF3t.jpg","original_language":"en","original_title":"Precious Cargo","genre_ids":[28,80,53],"backdrop_path":"\/9GrRa17mzHHOgTBZCfW0tGcX7RQ.jpg","adult":false,"overview":"After a botched heist, Eddie  a murderous crime boss, hunts down the seductive thief Karen who failed him. In order to win back Eddie’s trust, Karen recruits her ex-lover and premier thief Jack to steal a cargo of rare precious gems. But when the job goes down, allegiances are betrayed and lines are crossed as Jack, Karen, and Eddie face off in a fateful showdown.","release_date":"2016-07-15"},{"vote_count":326,"id":379291,"video":false,"vote_average":6.9,"title":"Justice League vs. Teen Titans","popularity":8.532,"poster_path":"\/dQMO9EJxDBkdRzWUEWkbYzrMDC0.jpg","original_language":"en","original_title":"Justice League vs. Teen Titans","genre_ids":[28,16],"backdrop_path":"\/rOWMgSlj69fUjYjMVfkvL62mfz7.jpg","adult":false,"overview":"Robin is sent by Batman to work with the Teen Titans after his volatile behavior botches up a Justice League mission. The Titans must then step up to face Trigon after he possesses the League and threatens to conquer the world.","release_date":"2016-03-29"},{"vote_count":236,"id":127533,"video":false,"vote_average":7.4,"title":"Rurouni Kenshin","popularity":8.499,"poster_path":"\/rmBUaljPj6SJVArR68fHl41oJU4.jpg","original_language":"ja","original_title":"るろうに剣心","genre_ids":[28,18,36],"backdrop_path":"\/6cf1HWR2KF68zTwYIlcOscStMHn.jpg","adult":false,"overview":"Former legendary assassin Kenshin Himura has now become a wandering samurai. Offering aid & protecting those in need as atonement for his past deeds. During this time Kenshin Himura comes across and aides Kaoru Kamiya (Emi Takei). Her father opened the Kamiya Kasshin-ryu, a kendo school located in Tokyo and Kaoru is now an instructor there. Kaoru then invites Kenshin to stay at her dojo. Their relationship develops further, but Kenshin is still haunted by his violent past...","release_date":"2012-08-25"},{"vote_count":166,"id":290864,"video":false,"vote_average":6.5,"title":"Kung Fu Jungle","popularity":8.457,"poster_path":"\/uTgzEoPNiMOUUyDxlg4s3SUQEGn.jpg","original_language":"cn","original_title":"一個人的武林","genre_ids":[80,28,53],"backdrop_path":"\/vhR21XswkhZrspfuyAbybN5C2ME.jpg","adult":false,"overview":"A martial arts instructor working at a police academy gets imprisoned after killing a man by accident. But when a vicious killer starts targeting martial arts masters, the instructor offers to help the police in return for his freedom.","release_date":"2014-10-31"},{"vote_count":1327,"id":364433,"video":false,"vote_average":7.5,"title":"They Call Me Jeeg","popularity":8.425,"poster_path":"\/5V54GvHclEuO4qJ13tEaFqaFTxP.jpg","original_language":"it","original_title":"Lo chiamavano Jeeg Robot","genre_ids":[28,18,35,53,878],"backdrop_path":"\/inUdCnWN6a5NaLmddZkeT7yJO44.jpg","adult":false,"overview":"Enzo Ceccotti comes into contact with a radioactive substance, then accidently discovers he has superpowers. A touchy, navel-gazing introvert, he’s sure his new capabilities will do wonders for his life of crime, but that all changes when he meets Alessia, who’s convinced he’s the hero from the famous Japanese comic strip, Steel Jeeg Robot.","release_date":"2016-02-25"},{"vote_count":250,"id":359412,"video":false,"vote_average":5.7,"title":"Marauders","popularity":8.425,"poster_path":"\/3iOYH67ZPflBMDMMkEv2tKRX4xe.jpg","original_language":"en","original_title":"Marauders","genre_ids":[28,80,53],"backdrop_path":"\/tl43mLoritpnT3CxC7cTdyPCtgt.jpg","adult":false,"overview":"An untraceable group of elite bank robbers is chased by a suicidal FBI agent who uncovers a deeper purpose behind the robbery-homicides.","release_date":"2016-07-01"},{"vote_count":153,"id":408266,"video":false,"vote_average":5.6,"title":"Birth of the Dragon","popularity":8.399,"poster_path":"\/a7HY9butbuO8XwB3uBxQ98MBxd4.jpg","original_language":"en","original_title":"Birth of the Dragon","genre_ids":[28,18],"backdrop_path":"\/sny1LWyTfB4NSHXjWvwrKBABacN.jpg","adult":false,"overview":"Set against the backdrop of San Francisco’s Chinatown, this cross-cultural biopic chronicles Bruce Lee’s emergence as a martial-arts superstar after his legendary secret showdown with fellow martial artist Wong Jack Man.","release_date":"2017-08-25"},{"vote_count":104,"id":363579,"video":false,"vote_average":7.4,"title":"The Age of Shadows","popularity":8.369,"poster_path":"\/6muQ6lCytv0qldjA7aDT8EpPmtF.jpg","original_language":"ko","original_title":"밀정","genre_ids":[28,18,53],"backdrop_path":"\/aBcMmUNYU1WZkJvXhK61Jm2HjSK.jpg","adult":false,"overview":"Set in the late 1920s, The Age of Shadows follows the cat-and-mouse game that unfolds between a group of resistance fighters trying to bring in explosives from Shanghai to destroy key Japanese facilities in Seoul, and Japanese agents trying to stop them.","release_date":"2016-09-07"},{"vote_count":322,"id":390734,"video":false,"vote_average":6.8,"title":"Kingsglaive: Final Fantasy XV","popularity":8.241,"poster_path":"\/xGMgspge6uYoypRiasAmlluDlXH.jpg","original_language":"ja","original_title":"キングスグレイブ ファイナルファンタジーXV","genre_ids":[28,16,878],"backdrop_path":"\/foxgxCt3JSmHevCXUJfQ9ZGB4K5.jpg","adult":false,"overview":"The magical kingdom of Lucis is home to the world’s last remaining Crystal, and the menacing empire of Niflheim is determined to steal it. King Regis of Lucis commands an elite force of soldiers called the Kingsglaive. Wielding their king’s magic, they fight to protect Lucis. As the overwhelming military might of the empire bears down, King Regis is faced with an impossible ultimatum – to marry his son, Prince Noctis to Princess Lunafreya of Tenebrae, captive of Niflheim, and surrender his lands to Niflheim rule.  Although the king concedes, it becomes clear that the empire will stop at nothing to achieve their devious goals, with only the Kingsglaive standing between them and world domination.","release_date":"2016-07-09"},{"vote_count":146,"id":339530,"video":false,"vote_average":5,"title":"Tremors 5: Bloodlines","popularity":8.233,"poster_path":"\/6VsHLBuVaTKXSYHqdCCgZWIYvrp.jpg","original_language":"en","original_title":"Tremors 5: Bloodlines","genre_ids":[878,28,27],"backdrop_path":"\/86gcT2Py9GLStQqnOEBosJ9acse.jpg","adult":false,"overview":"The giant, man-eating Graboids are back and even deadlier than before, terrorizing the inhabitants of a South African wildlife reserve as they attack from below-and above.","release_date":"2015-10-06"},{"vote_count":290,"id":11006,"video":false,"vote_average":6.8,"title":"Smokey and the Bandit","popularity":8.219,"poster_path":"\/5uTIEUSBVzmEZ8TnFEZbCCOVHPj.jpg","original_language":"en","original_title":"Smokey and the Bandit","genre_ids":[28,12,35],"backdrop_path":"\/hzjX8eA4u7tGz4d4kjTnsW4RNWK.jpg","adult":false,"overview":"A race car driver tries to transport an illegal beer shipment from Texas to Atlanta in under 28 hours, picking up a reluctant bride-to-be on the way.","release_date":"1977-05-26"},{"vote_count":823,"id":323677,"video":false,"vote_average":7.2,"title":"Race","popularity":8.188,"poster_path":"\/szLfTQ2vLFQkNbP3dc0pnco1rje.jpg","original_language":"en","original_title":"Race","genre_ids":[28,18],"backdrop_path":"\/3fcBsj9JMQQ27Wuk3LVrEwVZ2VT.jpg","adult":false,"overview":"Based on the incredible true story of Jesse Owens, the legendary athletic superstar whose quest to become the greatest track and field athlete in history thrusts him onto the world stage of the 1936 Olympics, where he faces off against Adolf Hitler's vision of Aryan supremacy. Starring Stephan James, Jason Sudeikis, Jeremy Irons, Carice Van Houten and William Hurt - Race is an enthralling film about courage, determination, tolerance, and friendship, and an inspiring drama about one man's fight to become an Olympic legend.","release_date":"2016-02-19"},{"vote_count":307,"id":360814,"video":false,"vote_average":8.1,"title":"Dangal","popularity":8.182,"poster_path":"\/5PDT64gtbmH10gK5AYR7LZh5PQk.jpg","original_language":"hi","original_title":"दंगल","genre_ids":[18,28],"backdrop_path":"\/mFCEeEjRfU2WU9vv5ApXJLzKxy7.jpg","adult":false,"overview":"Dangal is an extraordinary true story based on the life of Mahavir Singh and his two daughters, Geeta and Babita Phogat. The film traces the inspirational journey of a father who trains his daughters to become world class wrestlers.","release_date":"2016-12-21"},{"vote_count":1643,"id":261392,"video":false,"vote_average":6,"title":"American Ultra","popularity":8.094,"poster_path":"\/auQHgr1FO6upJpXx1eYEeyq2sMs.jpg","original_language":"en","original_title":"American Ultra","genre_ids":[35,28],"backdrop_path":"\/qZDbpjCcN3SJIITXgeexbQ3p6WX.jpg","adult":false,"overview":"American Ultra is a fast-paced action comedy about Mike, a seemingly hapless and unmotivated stoner whose small-town life with his live-in girlfriend, Phoebe, is suddenly turned upside down.  Unbeknownst to him, Mike is actually a highly trained, lethal sleeper agent. In the blink of an eye, as his secret past comes back to haunt him, Mike is thrust into the middle of a deadly government operation and is forced to summon his inner action-hero in order to survive.","release_date":"2015-08-19"},{"vote_count":501,"id":382597,"video":false,"vote_average":5.9,"title":"R.A.I.D. Special Unit","popularity":7.951,"poster_path":"\/vkIWKRIr5zTMFH0zEi2Y0ZyWbfO.jpg","original_language":"fr","original_title":"Raid Dingue","genre_ids":[28,35],"backdrop_path":"\/nJOZJ74vOpougsoclgs0fVCHxcs.jpg","adult":false,"overview":"The story of a woman who dreams to join an intervention group in the police department called RAID. Unfortunately, she is rather clumsy and both her family (and soon to be family-in-law) and a veteran of the RAID do not approve. However, Johanna is determined to prove them wrong.","release_date":"2017-02-01"},{"vote_count":167,"id":348060,"video":false,"vote_average":5.8,"title":"Antigang","popularity":7.938,"poster_path":"\/gzEh4ypBWEF89uce6LMPdNX3p3y.jpg","original_language":"fr","original_title":"Antigang","genre_ids":[28,18],"backdrop_path":"\/uFi9Vg0Pd0ccFfXVl3QDHfv815E.jpg","adult":false,"overview":"A french police unit that try to stop a group of criminals.","release_date":"2015-08-19"},{"vote_count":160,"id":326425,"video":false,"vote_average":4.5,"title":"Extraction","popularity":7.914,"poster_path":"\/s1yyDZetHVSLoL06ZgkCrWh0MH7.jpg","original_language":"en","original_title":"Extraction","genre_ids":[28,53],"backdrop_path":"\/qUvO1DG80geEOl45AGfRfzuQY0A.jpg","adult":false,"overview":"A former CIA operative is kidnapped by a group of terrorists. When his son learns there is no plan for his father to be saved, he launches his own rescue operation.","release_date":"2015-12-18"},{"vote_count":89,"id":299824,"video":false,"vote_average":5.9,"title":"Mojin: The Lost Legend","popularity":7.881,"poster_path":"\/supoIHkh3dzDi1XmvK8tgGlkGNS.jpg","original_language":"zh","original_title":"寻龙诀","genre_ids":[28,12,14],"backdrop_path":"\/93m7Of54w5JH4mJLyAvrr7dtSA7.jpg","adult":false,"overview":"At the beginning of the 1990s, famous tomb explorer Hu Bayi decided to retire and move to the United States with his girlfriend Shirley. But before his wedding, Bayi discovers his first love Ding Shitian, who supposedly had died in the \"One Hundred Cave\" 20 years ago, is actually still alive. Together with Shirley and his old exploration partner, Bayi unravels a terrible millennium-old secret...","release_date":"2015-12-18"},{"vote_count":95,"id":340382,"video":false,"vote_average":4.9,"title":"Attack on Titan II: End of the World","popularity":7.846,"poster_path":"\/i26XqeYsAuZyqIK7dsEXvgajzac.jpg","original_language":"ja","original_title":"進撃の巨人 ATTACK ON TITAN エンド オブ ザ ワールド","genre_ids":[27,878,28,14,18],"backdrop_path":"\/bnuBhHLzsRapDWheh9kwNn6qZnp.jpg","adult":false,"overview":"Eren leaves to restore a break in the wall destroyed by a Titan. He comes under attack by the Titans and is cornered. Shikishima comes to his aid. The titans never stops attacking.  Eren is now injured and tries to protect Armin, but is swallowed by a titan. A Titan with black hair appears and begins to expel the other titans.","release_date":"2015-09-01"}]}